solid OpenSCAD_Model
  facet normal -1 0 0
    outer loop
      vertex -32 -17 0
      vertex -32 17 3
      vertex -32 17 0
    endloop
  endfacet
  facet normal -1 -0 0
    outer loop
      vertex -32 17 3
      vertex -32 -17 0
      vertex -32 -17 3
    endloop
  endfacet
  facet normal 0 0 1
    outer loop
      vertex 32 17 3
      vertex 28.5 0 3
      vertex 32 -17 3
    endloop
  endfacet
  facet normal 0 0 1
    outer loop
      vertex 32 17 3
      vertex 28.4918 0.156793 3
      vertex 28.5 0 3
    endloop
  endfacet
  facet normal 0 0 1
    outer loop
      vertex 32 17 3
      vertex 28.4672 0.311867 3
      vertex 28.4918 0.156793 3
    endloop
  endfacet
  facet normal 0 0 1
    outer loop
      vertex 32 17 3
      vertex 28.4266 0.463525 3
      vertex 28.4672 0.311867 3
    endloop
  endfacet
  facet normal 0 0 1
    outer loop
      vertex 32 17 3
      vertex 28.3703 0.610105 3
      vertex 28.4266 0.463525 3
    endloop
  endfacet
  facet normal 0 0 1
    outer loop
      vertex 32 17 3
      vertex 28.299 0.749999 3
      vertex 28.3703 0.610105 3
    endloop
  endfacet
  facet normal 0 0 1
    outer loop
      vertex 32 17 3
      vertex 28.2135 0.881678 3
      vertex 28.299 0.749999 3
    endloop
  endfacet
  facet normal 0 0 1
    outer loop
      vertex 32 17 3
      vertex 28.1147 1.0037 3
      vertex 28.2135 0.881678 3
    endloop
  endfacet
  facet normal 0 0 1
    outer loop
      vertex 32 17 3
      vertex 28.0037 1.11472 3
      vertex 28.1147 1.0037 3
    endloop
  endfacet
  facet normal 0 0 1
    outer loop
      vertex 32 17 3
      vertex 27.8817 1.21352 3
      vertex 28.0037 1.11472 3
    endloop
  endfacet
  facet normal 0 0 1
    outer loop
      vertex 32 17 3
      vertex 27.75 1.29904 3
      vertex 27.8817 1.21352 3
    endloop
  endfacet
  facet normal 0 0 1
    outer loop
      vertex 32 17 3
      vertex 27.6101 1.37032 3
      vertex 27.75 1.29904 3
    endloop
  endfacet
  facet normal 0 0 1
    outer loop
      vertex 32 17 3
      vertex 27.4635 1.42658 3
      vertex 27.6101 1.37032 3
    endloop
  endfacet
  facet normal 0 0 1
    outer loop
      vertex 32 17 3
      vertex 27.3119 1.46722 3
      vertex 27.4635 1.42658 3
    endloop
  endfacet
  facet normal 0 0 1
    outer loop
      vertex 32 17 3
      vertex 27.1568 1.49178 3
      vertex 27.3119 1.46722 3
    endloop
  endfacet
  facet normal 0 0 1
    outer loop
      vertex 32 17 3
      vertex 27 1.5 3
      vertex 27.1568 1.49178 3
    endloop
  endfacet
  facet normal 0 0 1
    outer loop
      vertex 32 17 3
      vertex 26.8432 1.49178 3
      vertex 27 1.5 3
    endloop
  endfacet
  facet normal 0 0 1
    outer loop
      vertex 32 17 3
      vertex 26.6881 1.46722 3
      vertex 26.8432 1.49178 3
    endloop
  endfacet
  facet normal 0 0 1
    outer loop
      vertex 32 17 3
      vertex 26.5365 1.42658 3
      vertex 26.6881 1.46722 3
    endloop
  endfacet
  facet normal 0 0 1
    outer loop
      vertex 32 17 3
      vertex 26.3899 1.37032 3
      vertex 26.5365 1.42658 3
    endloop
  endfacet
  facet normal 0 0 1
    outer loop
      vertex 32 17 3
      vertex 26.25 1.29904 3
      vertex 26.3899 1.37032 3
    endloop
  endfacet
  facet normal -0 0 1
    outer loop
      vertex 8 8 3
      vertex 26.25 1.29904 3
      vertex 32 17 3
    endloop
  endfacet
  facet normal 0 0 1
    outer loop
      vertex 26.25 1.29904 3
      vertex 8 8 3
      vertex 26.1183 1.21352 3
    endloop
  endfacet
  facet normal 0 0 1
    outer loop
      vertex 26.1183 1.21352 3
      vertex 8 8 3
      vertex 25.9963 1.11472 3
    endloop
  endfacet
  facet normal 0 0 1
    outer loop
      vertex 25.9963 1.11472 3
      vertex 8 8 3
      vertex 25.8853 1.0037 3
    endloop
  endfacet
  facet normal 0 0 1
    outer loop
      vertex 25.8853 1.0037 3
      vertex 8 8 3
      vertex 25.7865 0.881678 3
    endloop
  endfacet
  facet normal 0 0 1
    outer loop
      vertex 25.7865 0.881678 3
      vertex 8 8 3
      vertex 25.701 0.749999 3
    endloop
  endfacet
  facet normal 0 0 1
    outer loop
      vertex 8 8 3
      vertex 25.5 0 3
      vertex 25.5082 0.156793 3
    endloop
  endfacet
  facet normal 0 0 1
    outer loop
      vertex 8 8 3
      vertex 25.5082 0.156793 3
      vertex 25.5328 0.311867 3
    endloop
  endfacet
  facet normal 0 0 1
    outer loop
      vertex 8 8 3
      vertex 25.5328 0.311867 3
      vertex 25.5734 0.463525 3
    endloop
  endfacet
  facet normal 0 0 1
    outer loop
      vertex 8 8 3
      vertex 25.5734 0.463525 3
      vertex 25.6297 0.610105 3
    endloop
  endfacet
  facet normal 0 0 1
    outer loop
      vertex 25.701 0.749999 3
      vertex 8 8 3
      vertex 25.6297 0.610105 3
    endloop
  endfacet
  facet normal 0 0 1
    outer loop
      vertex 25.5 0 3
      vertex 8 8 3
      vertex 8 -8 3
    endloop
  endfacet
  facet normal 0 0 1
    outer loop
      vertex 32 17 3
      vertex -8 8 3
      vertex 8 8 3
    endloop
  endfacet
  facet normal -0 0 1
    outer loop
      vertex -25.5 0 3
      vertex -8 -8 3
      vertex -8 8 3
    endloop
  endfacet
  facet normal -0 0 1
    outer loop
      vertex -25.5328 -0.311867 3
      vertex -8 -8 3
      vertex -25.5082 -0.156793 3
    endloop
  endfacet
  facet normal -0 0 1
    outer loop
      vertex -25.5082 -0.156793 3
      vertex -8 -8 3
      vertex -25.5 0 3
    endloop
  endfacet
  facet normal 0 0 1
    outer loop
      vertex -8 8 3
      vertex -25.5082 0.156793 3
      vertex -25.5 0 3
    endloop
  endfacet
  facet normal 0 0 1
    outer loop
      vertex -8 8 3
      vertex -25.5328 0.311867 3
      vertex -25.5082 0.156793 3
    endloop
  endfacet
  facet normal 0 0 1
    outer loop
      vertex -8 8 3
      vertex -25.5734 0.463525 3
      vertex -25.5328 0.311867 3
    endloop
  endfacet
  facet normal 0 0 1
    outer loop
      vertex -8 8 3
      vertex -25.6297 0.610105 3
      vertex -25.5734 0.463525 3
    endloop
  endfacet
  facet normal 0 0 1
    outer loop
      vertex -8 8 3
      vertex -25.701 0.749999 3
      vertex -25.6297 0.610105 3
    endloop
  endfacet
  facet normal 0 0 1
    outer loop
      vertex -8 8 3
      vertex -25.7865 0.881678 3
      vertex -25.701 0.749999 3
    endloop
  endfacet
  facet normal 0 0 1
    outer loop
      vertex -8 8 3
      vertex -25.8853 1.0037 3
      vertex -25.7865 0.881678 3
    endloop
  endfacet
  facet normal 0 0 1
    outer loop
      vertex -8 8 3
      vertex -25.9963 1.11472 3
      vertex -25.8853 1.0037 3
    endloop
  endfacet
  facet normal 0 0 1
    outer loop
      vertex -8 8 3
      vertex -26.1183 1.21352 3
      vertex -25.9963 1.11472 3
    endloop
  endfacet
  facet normal 0 0 1
    outer loop
      vertex -8 8 3
      vertex -26.25 1.29904 3
      vertex -26.1183 1.21352 3
    endloop
  endfacet
  facet normal 0 0 1
    outer loop
      vertex -32 17 3
      vertex -26.25 1.29904 3
      vertex -8 8 3
    endloop
  endfacet
  facet normal 0 0 1
    outer loop
      vertex -26.25 1.29904 3
      vertex -32 17 3
      vertex -26.3899 1.37032 3
    endloop
  endfacet
  facet normal 0 0 1
    outer loop
      vertex -26.3899 1.37032 3
      vertex -32 17 3
      vertex -26.5365 1.42658 3
    endloop
  endfacet
  facet normal 0 0 1
    outer loop
      vertex -26.5365 1.42658 3
      vertex -32 17 3
      vertex -26.6881 1.46722 3
    endloop
  endfacet
  facet normal 0 0 1
    outer loop
      vertex -26.6881 1.46722 3
      vertex -32 17 3
      vertex -26.8432 1.49178 3
    endloop
  endfacet
  facet normal 0 0 1
    outer loop
      vertex -26.8432 1.49178 3
      vertex -32 17 3
      vertex -27 1.5 3
    endloop
  endfacet
  facet normal 0 0 1
    outer loop
      vertex -27 1.5 3
      vertex -32 17 3
      vertex -27.1568 1.49178 3
    endloop
  endfacet
  facet normal 0 0 1
    outer loop
      vertex -27.1568 1.49178 3
      vertex -32 17 3
      vertex -27.3119 1.46722 3
    endloop
  endfacet
  facet normal 0 0 1
    outer loop
      vertex -28.4918 0.156793 3
      vertex -32 17 3
      vertex -28.5 0 3
    endloop
  endfacet
  facet normal 0 0 1
    outer loop
      vertex -28.4672 0.311867 3
      vertex -32 17 3
      vertex -28.4918 0.156793 3
    endloop
  endfacet
  facet normal 0 0 1
    outer loop
      vertex -28.4266 0.463525 3
      vertex -32 17 3
      vertex -28.4672 0.311867 3
    endloop
  endfacet
  facet normal 0 0 1
    outer loop
      vertex -28.3703 0.610105 3
      vertex -32 17 3
      vertex -28.4266 0.463525 3
    endloop
  endfacet
  facet normal 0 0 1
    outer loop
      vertex -28.299 0.749999 3
      vertex -32 17 3
      vertex -28.3703 0.610105 3
    endloop
  endfacet
  facet normal 0 0 1
    outer loop
      vertex -28.2135 0.881678 3
      vertex -32 17 3
      vertex -28.299 0.749999 3
    endloop
  endfacet
  facet normal 0 0 1
    outer loop
      vertex -28.1147 1.0037 3
      vertex -32 17 3
      vertex -28.2135 0.881678 3
    endloop
  endfacet
  facet normal 0 0 1
    outer loop
      vertex -28.0037 1.11472 3
      vertex -32 17 3
      vertex -28.1147 1.0037 3
    endloop
  endfacet
  facet normal 0 0 1
    outer loop
      vertex -27.8817 1.21352 3
      vertex -32 17 3
      vertex -28.0037 1.11472 3
    endloop
  endfacet
  facet normal 0 0 1
    outer loop
      vertex -27.75 1.29904 3
      vertex -32 17 3
      vertex -27.8817 1.21352 3
    endloop
  endfacet
  facet normal 0 0 1
    outer loop
      vertex -27.6101 1.37032 3
      vertex -32 17 3
      vertex -27.75 1.29904 3
    endloop
  endfacet
  facet normal 0 0 1
    outer loop
      vertex -27.4635 1.42658 3
      vertex -32 17 3
      vertex -27.6101 1.37032 3
    endloop
  endfacet
  facet normal 0 0 1
    outer loop
      vertex -27.3119 1.46722 3
      vertex -32 17 3
      vertex -27.4635 1.42658 3
    endloop
  endfacet
  facet normal -0 0 1
    outer loop
      vertex -32 17 3
      vertex -8 8 3
      vertex 32 17 3
    endloop
  endfacet
  facet normal -0 0 1
    outer loop
      vertex 28.4918 -0.156793 3
      vertex 32 -17 3
      vertex 28.5 0 3
    endloop
  endfacet
  facet normal -0 0 1
    outer loop
      vertex 28.4672 -0.311867 3
      vertex 32 -17 3
      vertex 28.4918 -0.156793 3
    endloop
  endfacet
  facet normal -0 0 1
    outer loop
      vertex 28.4266 -0.463525 3
      vertex 32 -17 3
      vertex 28.4672 -0.311867 3
    endloop
  endfacet
  facet normal -0 0 1
    outer loop
      vertex 28.3703 -0.610105 3
      vertex 32 -17 3
      vertex 28.4266 -0.463525 3
    endloop
  endfacet
  facet normal -0 0 1
    outer loop
      vertex 28.299 -0.749999 3
      vertex 32 -17 3
      vertex 28.3703 -0.610105 3
    endloop
  endfacet
  facet normal -0 0 1
    outer loop
      vertex 28.2135 -0.881678 3
      vertex 32 -17 3
      vertex 28.299 -0.749999 3
    endloop
  endfacet
  facet normal -0 0 1
    outer loop
      vertex 28.1147 -1.0037 3
      vertex 32 -17 3
      vertex 28.2135 -0.881678 3
    endloop
  endfacet
  facet normal -0 0 1
    outer loop
      vertex 28.0037 -1.11472 3
      vertex 32 -17 3
      vertex 28.1147 -1.0037 3
    endloop
  endfacet
  facet normal -0 0 1
    outer loop
      vertex 27.8817 -1.21352 3
      vertex 32 -17 3
      vertex 28.0037 -1.11472 3
    endloop
  endfacet
  facet normal -0 0 1
    outer loop
      vertex 27.75 -1.29904 3
      vertex 32 -17 3
      vertex 27.8817 -1.21352 3
    endloop
  endfacet
  facet normal -0 0 1
    outer loop
      vertex 27.6101 -1.37032 3
      vertex 32 -17 3
      vertex 27.75 -1.29904 3
    endloop
  endfacet
  facet normal -0 0 1
    outer loop
      vertex 27.4635 -1.42658 3
      vertex 32 -17 3
      vertex 27.6101 -1.37032 3
    endloop
  endfacet
  facet normal -0 0 1
    outer loop
      vertex 27.3119 -1.46722 3
      vertex 32 -17 3
      vertex 27.4635 -1.42658 3
    endloop
  endfacet
  facet normal -0 0 1
    outer loop
      vertex 27.1568 -1.49178 3
      vertex 32 -17 3
      vertex 27.3119 -1.46722 3
    endloop
  endfacet
  facet normal -0 0 1
    outer loop
      vertex 27 -1.5 3
      vertex 32 -17 3
      vertex 27.1568 -1.49178 3
    endloop
  endfacet
  facet normal 0 0 1
    outer loop
      vertex 26.8432 -1.49178 3
      vertex 32 -17 3
      vertex 27 -1.5 3
    endloop
  endfacet
  facet normal 0 0 1
    outer loop
      vertex 26.6881 -1.46722 3
      vertex 32 -17 3
      vertex 26.8432 -1.49178 3
    endloop
  endfacet
  facet normal 0 0 1
    outer loop
      vertex 26.5365 -1.42658 3
      vertex 32 -17 3
      vertex 26.6881 -1.46722 3
    endloop
  endfacet
  facet normal 0 0 1
    outer loop
      vertex 26.3899 -1.37032 3
      vertex 32 -17 3
      vertex 26.5365 -1.42658 3
    endloop
  endfacet
  facet normal 0 0 1
    outer loop
      vertex 26.25 -1.29904 3
      vertex 32 -17 3
      vertex 26.3899 -1.37032 3
    endloop
  endfacet
  facet normal 0 0 1
    outer loop
      vertex 8.5 -9 3
      vertex 26.25 -1.29904 3
      vertex 26.1183 -1.21352 3
    endloop
  endfacet
  facet normal 0 0 1
    outer loop
      vertex 8.5 -9 3
      vertex 26.1183 -1.21352 3
      vertex 25.9963 -1.11472 3
    endloop
  endfacet
  facet normal 0 0 1
    outer loop
      vertex 8.5 -9 3
      vertex 25.9963 -1.11472 3
      vertex 25.8853 -1.0037 3
    endloop
  endfacet
  facet normal 0 0 1
    outer loop
      vertex 8.5 -9 3
      vertex 25.8853 -1.0037 3
      vertex 25.7865 -0.881678 3
    endloop
  endfacet
  facet normal 0 0 1
    outer loop
      vertex 8.5 -9 3
      vertex 25.7865 -0.881678 3
      vertex 25.701 -0.749999 3
    endloop
  endfacet
  facet normal 0 0 1
    outer loop
      vertex 8.5 -9 3
      vertex 25.701 -0.749999 3
      vertex 25.6297 -0.610105 3
    endloop
  endfacet
  facet normal 0 0 1
    outer loop
      vertex 8.5 -9 3
      vertex 25.5082 -0.156793 3
      vertex 25.5 0 3
    endloop
  endfacet
  facet normal 0 0 1
    outer loop
      vertex 8.5 -9 3
      vertex 25.5328 -0.311867 3
      vertex 25.5082 -0.156793 3
    endloop
  endfacet
  facet normal 0 0 1
    outer loop
      vertex 8.5 -9 3
      vertex 25.5734 -0.463525 3
      vertex 25.5328 -0.311867 3
    endloop
  endfacet
  facet normal 0 0 1
    outer loop
      vertex 8.5 -9 3
      vertex 25.6297 -0.610105 3
      vertex 25.5734 -0.463525 3
    endloop
  endfacet
  facet normal 0 0 1
    outer loop
      vertex 26.25 -1.29904 3
      vertex 8.5 -9 3
      vertex 8.5 -14 3
    endloop
  endfacet
  facet normal 0 0 1
    outer loop
      vertex 26.25 -1.29904 3
      vertex 8.5 -14 3
      vertex 32 -17 3
    endloop
  endfacet
  facet normal -0 0 1
    outer loop
      vertex -8.5 -14 3
      vertex 32 -17 3
      vertex 8.5 -14 3
    endloop
  endfacet
  facet normal -0 0 1
    outer loop
      vertex -25.5734 -0.463525 3
      vertex -8 -8 3
      vertex -25.5328 -0.311867 3
    endloop
  endfacet
  facet normal -0 0 1
    outer loop
      vertex -25.6297 -0.610105 3
      vertex -8 -8 3
      vertex -25.5734 -0.463525 3
    endloop
  endfacet
  facet normal 0 0 1
    outer loop
      vertex -8 -8 3
      vertex -25.6297 -0.610105 3
      vertex -8.5 -9 3
    endloop
  endfacet
  facet normal -0 0 1
    outer loop
      vertex -25.701 -0.749999 3
      vertex -8.5 -9 3
      vertex -25.6297 -0.610105 3
    endloop
  endfacet
  facet normal -0 0 1
    outer loop
      vertex -25.7865 -0.881678 3
      vertex -8.5 -9 3
      vertex -25.701 -0.749999 3
    endloop
  endfacet
  facet normal -0 0 1
    outer loop
      vertex -25.8853 -1.0037 3
      vertex -8.5 -9 3
      vertex -25.7865 -0.881678 3
    endloop
  endfacet
  facet normal -0 0 1
    outer loop
      vertex -25.9963 -1.11472 3
      vertex -8.5 -9 3
      vertex -25.8853 -1.0037 3
    endloop
  endfacet
  facet normal -0 0 1
    outer loop
      vertex -26.1183 -1.21352 3
      vertex -8.5 -9 3
      vertex -25.9963 -1.11472 3
    endloop
  endfacet
  facet normal -0 0 1
    outer loop
      vertex -26.25 -1.29904 3
      vertex -8.5 -9 3
      vertex -26.1183 -1.21352 3
    endloop
  endfacet
  facet normal 0 0 1
    outer loop
      vertex -8.5 -9 3
      vertex -26.25 -1.29904 3
      vertex -8.5 -14 3
    endloop
  endfacet
  facet normal -0 0 1
    outer loop
      vertex -26.3899 -1.37032 3
      vertex -8.5 -14 3
      vertex -26.25 -1.29904 3
    endloop
  endfacet
  facet normal 0 0 1
    outer loop
      vertex -32 -17 3
      vertex -26.3899 -1.37032 3
      vertex -26.5365 -1.42658 3
    endloop
  endfacet
  facet normal 0 0 1
    outer loop
      vertex -32 -17 3
      vertex -26.5365 -1.42658 3
      vertex -26.6881 -1.46722 3
    endloop
  endfacet
  facet normal 0 0 1
    outer loop
      vertex -32 -17 3
      vertex -26.6881 -1.46722 3
      vertex -26.8432 -1.49178 3
    endloop
  endfacet
  facet normal 0 0 1
    outer loop
      vertex -32 -17 3
      vertex -26.8432 -1.49178 3
      vertex -27 -1.5 3
    endloop
  endfacet
  facet normal 0 0 1
    outer loop
      vertex -32 -17 3
      vertex -27 -1.5 3
      vertex -27.1568 -1.49178 3
    endloop
  endfacet
  facet normal 0 0 1
    outer loop
      vertex -32 -17 3
      vertex -27.1568 -1.49178 3
      vertex -27.3119 -1.46722 3
    endloop
  endfacet
  facet normal 0 0 1
    outer loop
      vertex -32 -17 3
      vertex -27.3119 -1.46722 3
      vertex -27.4635 -1.42658 3
    endloop
  endfacet
  facet normal 0 0 1
    outer loop
      vertex -32 -17 3
      vertex -27.4635 -1.42658 3
      vertex -27.6101 -1.37032 3
    endloop
  endfacet
  facet normal 0 0 1
    outer loop
      vertex -32 -17 3
      vertex -27.6101 -1.37032 3
      vertex -27.75 -1.29904 3
    endloop
  endfacet
  facet normal 0 0 1
    outer loop
      vertex -32 -17 3
      vertex -27.75 -1.29904 3
      vertex -27.8817 -1.21352 3
    endloop
  endfacet
  facet normal 0 0 1
    outer loop
      vertex -32 -17 3
      vertex -28.5 0 3
      vertex -32 17 3
    endloop
  endfacet
  facet normal 0 0 1
    outer loop
      vertex -28.5 0 3
      vertex -32 -17 3
      vertex -28.4918 -0.156793 3
    endloop
  endfacet
  facet normal 0 0 1
    outer loop
      vertex -8.5 -14 3
      vertex -32 -17 3
      vertex 32 -17 3
    endloop
  endfacet
  facet normal 0 0 1
    outer loop
      vertex -26.3899 -1.37032 3
      vertex -32 -17 3
      vertex -8.5 -14 3
    endloop
  endfacet
  facet normal 0 0 1
    outer loop
      vertex -28.0037 -1.11472 3
      vertex -32 -17 3
      vertex -27.8817 -1.21352 3
    endloop
  endfacet
  facet normal 0 0 1
    outer loop
      vertex -28.1147 -1.0037 3
      vertex -32 -17 3
      vertex -28.0037 -1.11472 3
    endloop
  endfacet
  facet normal 0 0 1
    outer loop
      vertex -28.2135 -0.881678 3
      vertex -32 -17 3
      vertex -28.1147 -1.0037 3
    endloop
  endfacet
  facet normal 0 0 1
    outer loop
      vertex -28.299 -0.749999 3
      vertex -32 -17 3
      vertex -28.2135 -0.881678 3
    endloop
  endfacet
  facet normal 0 0 1
    outer loop
      vertex -28.3703 -0.610105 3
      vertex -32 -17 3
      vertex -28.299 -0.749999 3
    endloop
  endfacet
  facet normal 0 0 1
    outer loop
      vertex -28.4266 -0.463525 3
      vertex -32 -17 3
      vertex -28.3703 -0.610105 3
    endloop
  endfacet
  facet normal 0 0 1
    outer loop
      vertex -28.4672 -0.311867 3
      vertex -32 -17 3
      vertex -28.4266 -0.463525 3
    endloop
  endfacet
  facet normal 0 0 1
    outer loop
      vertex -28.4918 -0.156793 3
      vertex -32 -17 3
      vertex -28.4672 -0.311867 3
    endloop
  endfacet
  facet normal 0 0 1
    outer loop
      vertex 25.5 0 3
      vertex 8 -8 3
      vertex 8.5 -9 3
    endloop
  endfacet
  facet normal -0 0 1
    outer loop
      vertex -8 -8 3
      vertex 8.5 -9 3
      vertex 8 -8 3
    endloop
  endfacet
  facet normal 0 0 1
    outer loop
      vertex 8.5 -9 3
      vertex -8 -8 3
      vertex -8.5 -9 3
    endloop
  endfacet
  facet normal 1 -0 0
    outer loop
      vertex 32 -17 3
      vertex 32 17 0
      vertex 32 17 3
    endloop
  endfacet
  facet normal 1 0 0
    outer loop
      vertex 32 17 0
      vertex 32 -17 3
      vertex 32 -17 0
    endloop
  endfacet
  facet normal 0 0 -1
    outer loop
      vertex 32 -17 0
      vertex 28.5 0 0
      vertex 32 17 0
    endloop
  endfacet
  facet normal 0 0 -1
    outer loop
      vertex 32 -17 0
      vertex 28.4918 -0.156793 0
      vertex 28.5 0 0
    endloop
  endfacet
  facet normal 0 0 -1
    outer loop
      vertex 32 -17 0
      vertex 28.4672 -0.311867 0
      vertex 28.4918 -0.156793 0
    endloop
  endfacet
  facet normal 0 0 -1
    outer loop
      vertex 32 -17 0
      vertex 28.4266 -0.463525 0
      vertex 28.4672 -0.311867 0
    endloop
  endfacet
  facet normal 0 0 -1
    outer loop
      vertex 32 -17 0
      vertex 28.3703 -0.610105 0
      vertex 28.4266 -0.463525 0
    endloop
  endfacet
  facet normal 0 0 -1
    outer loop
      vertex 32 -17 0
      vertex 28.299 -0.749999 0
      vertex 28.3703 -0.610105 0
    endloop
  endfacet
  facet normal 0 0 -1
    outer loop
      vertex 32 -17 0
      vertex 28.2135 -0.881678 0
      vertex 28.299 -0.749999 0
    endloop
  endfacet
  facet normal 0 0 -1
    outer loop
      vertex 32 -17 0
      vertex 28.1147 -1.0037 0
      vertex 28.2135 -0.881678 0
    endloop
  endfacet
  facet normal 0 0 -1
    outer loop
      vertex 32 -17 0
      vertex 28.0037 -1.11472 0
      vertex 28.1147 -1.0037 0
    endloop
  endfacet
  facet normal 0 0 -1
    outer loop
      vertex 32 -17 0
      vertex 27.8817 -1.21352 0
      vertex 28.0037 -1.11472 0
    endloop
  endfacet
  facet normal 0 0 -1
    outer loop
      vertex 32 -17 0
      vertex 27.75 -1.29904 0
      vertex 27.8817 -1.21352 0
    endloop
  endfacet
  facet normal 0 0 -1
    outer loop
      vertex 32 -17 0
      vertex 27.6101 -1.37032 0
      vertex 27.75 -1.29904 0
    endloop
  endfacet
  facet normal 0 0 -1
    outer loop
      vertex 32 -17 0
      vertex 27.4635 -1.42658 0
      vertex 27.6101 -1.37032 0
    endloop
  endfacet
  facet normal 0 0 -1
    outer loop
      vertex 32 -17 0
      vertex 27.3119 -1.46722 0
      vertex 27.4635 -1.42658 0
    endloop
  endfacet
  facet normal 0 0 -1
    outer loop
      vertex 32 -17 0
      vertex 27.1568 -1.49178 0
      vertex 27.3119 -1.46722 0
    endloop
  endfacet
  facet normal 0 0 -1
    outer loop
      vertex 32 -17 0
      vertex 27 -1.5 0
      vertex 27.1568 -1.49178 0
    endloop
  endfacet
  facet normal 0 0 -1
    outer loop
      vertex 32 -17 0
      vertex 26.8432 -1.49178 0
      vertex 27 -1.5 0
    endloop
  endfacet
  facet normal 0 0 -1
    outer loop
      vertex 32 -17 0
      vertex 26.6881 -1.46722 0
      vertex 26.8432 -1.49178 0
    endloop
  endfacet
  facet normal 0 0 -1
    outer loop
      vertex 32 -17 0
      vertex 26.5365 -1.42658 0
      vertex 26.6881 -1.46722 0
    endloop
  endfacet
  facet normal 0 0 -1
    outer loop
      vertex 32 -17 0
      vertex 26.3899 -1.37032 0
      vertex 26.5365 -1.42658 0
    endloop
  endfacet
  facet normal 0 0 -1
    outer loop
      vertex 32 -17 0
      vertex 26.25 -1.29904 0
      vertex 26.3899 -1.37032 0
    endloop
  endfacet
  facet normal 0 0 -1
    outer loop
      vertex 8.5 -14 0
      vertex 26.25 -1.29904 0
      vertex 32 -17 0
    endloop
  endfacet
  facet normal 0 0 -1
    outer loop
      vertex 8.5 -9 0
      vertex 26.25 -1.29904 0
      vertex 8.5 -14 0
    endloop
  endfacet
  facet normal -0 0 -1
    outer loop
      vertex 26.25 -1.29904 0
      vertex 8.5 -9 0
      vertex 26.1183 -1.21352 0
    endloop
  endfacet
  facet normal -0 0 -1
    outer loop
      vertex 26.1183 -1.21352 0
      vertex 8.5 -9 0
      vertex 25.9963 -1.11472 0
    endloop
  endfacet
  facet normal -0 0 -1
    outer loop
      vertex 25.9963 -1.11472 0
      vertex 8.5 -9 0
      vertex 25.8853 -1.0037 0
    endloop
  endfacet
  facet normal -0 0 -1
    outer loop
      vertex 25.8853 -1.0037 0
      vertex 8.5 -9 0
      vertex 25.7865 -0.881678 0
    endloop
  endfacet
  facet normal -0 0 -1
    outer loop
      vertex 25.5328 -0.311867 0
      vertex 8.5 -9 0
      vertex 25.5082 -0.156793 0
    endloop
  endfacet
  facet normal -0 0 -1
    outer loop
      vertex 25.5734 -0.463525 0
      vertex 8.5 -9 0
      vertex 25.5328 -0.311867 0
    endloop
  endfacet
  facet normal -0 0 -1
    outer loop
      vertex 25.6297 -0.610105 0
      vertex 8.5 -9 0
      vertex 25.5734 -0.463525 0
    endloop
  endfacet
  facet normal -0 0 -1
    outer loop
      vertex 25.701 -0.749999 0
      vertex 8.5 -9 0
      vertex 25.6297 -0.610105 0
    endloop
  endfacet
  facet normal -0 0 -1
    outer loop
      vertex 25.7865 -0.881678 0
      vertex 8.5 -9 0
      vertex 25.701 -0.749999 0
    endloop
  endfacet
  facet normal 0 0 -1
    outer loop
      vertex 32 -17 0
      vertex -8.5 -14 0
      vertex 8.5 -14 0
    endloop
  endfacet
  facet normal 0 0 -1
    outer loop
      vertex -26.25 -1.29904 0
      vertex -8.5 -9 0
      vertex -8.5 -14 0
    endloop
  endfacet
  facet normal 0 0 -1
    outer loop
      vertex -8.5 -9 0
      vertex -25.5082 -0.156793 0
      vertex -25.5 0 0
    endloop
  endfacet
  facet normal 0 0 -1
    outer loop
      vertex -8.5 -9 0
      vertex -25.5328 -0.311867 0
      vertex -25.5082 -0.156793 0
    endloop
  endfacet
  facet normal 0 0 -1
    outer loop
      vertex -8.5 -9 0
      vertex -25.5734 -0.463525 0
      vertex -25.5328 -0.311867 0
    endloop
  endfacet
  facet normal 0 0 -1
    outer loop
      vertex -8.5 -9 0
      vertex -25.6297 -0.610105 0
      vertex -25.5734 -0.463525 0
    endloop
  endfacet
  facet normal 0 0 -1
    outer loop
      vertex -8.5 -9 0
      vertex -25.701 -0.749999 0
      vertex -25.6297 -0.610105 0
    endloop
  endfacet
  facet normal 0 0 -1
    outer loop
      vertex -8.5 -9 0
      vertex -25.7865 -0.881678 0
      vertex -25.701 -0.749999 0
    endloop
  endfacet
  facet normal 0 0 -1
    outer loop
      vertex -8.5 -9 0
      vertex -25.8853 -1.0037 0
      vertex -25.7865 -0.881678 0
    endloop
  endfacet
  facet normal 0 0 -1
    outer loop
      vertex -8.5 -9 0
      vertex -25.9963 -1.11472 0
      vertex -25.8853 -1.0037 0
    endloop
  endfacet
  facet normal 0 0 -1
    outer loop
      vertex -8.5 -9 0
      vertex -26.1183 -1.21352 0
      vertex -25.9963 -1.11472 0
    endloop
  endfacet
  facet normal 0 0 -1
    outer loop
      vertex -8.5 -9 0
      vertex -26.25 -1.29904 0
      vertex -26.1183 -1.21352 0
    endloop
  endfacet
  facet normal 0 0 -1
    outer loop
      vertex -8.5 -14 0
      vertex -26.3899 -1.37032 0
      vertex -26.25 -1.29904 0
    endloop
  endfacet
  facet normal 0 0 -1
    outer loop
      vertex -32 -17 0
      vertex -26.3899 -1.37032 0
      vertex -8.5 -14 0
    endloop
  endfacet
  facet normal 0 0 -1
    outer loop
      vertex -26.3899 -1.37032 0
      vertex -32 -17 0
      vertex -26.5365 -1.42658 0
    endloop
  endfacet
  facet normal 0 0 -1
    outer loop
      vertex -26.5365 -1.42658 0
      vertex -32 -17 0
      vertex -26.6881 -1.46722 0
    endloop
  endfacet
  facet normal 0 0 -1
    outer loop
      vertex -26.6881 -1.46722 0
      vertex -32 -17 0
      vertex -26.8432 -1.49178 0
    endloop
  endfacet
  facet normal 0 0 -1
    outer loop
      vertex -26.8432 -1.49178 0
      vertex -32 -17 0
      vertex -27 -1.5 0
    endloop
  endfacet
  facet normal -0 0 -1
    outer loop
      vertex -27 -1.5 0
      vertex -32 -17 0
      vertex -27.1568 -1.49178 0
    endloop
  endfacet
  facet normal -0 0 -1
    outer loop
      vertex -27.1568 -1.49178 0
      vertex -32 -17 0
      vertex -27.3119 -1.46722 0
    endloop
  endfacet
  facet normal -0 0 -1
    outer loop
      vertex -27.3119 -1.46722 0
      vertex -32 -17 0
      vertex -27.4635 -1.42658 0
    endloop
  endfacet
  facet normal -0 0 -1
    outer loop
      vertex -27.4635 -1.42658 0
      vertex -32 -17 0
      vertex -27.6101 -1.37032 0
    endloop
  endfacet
  facet normal -0 0 -1
    outer loop
      vertex -27.6101 -1.37032 0
      vertex -32 -17 0
      vertex -27.75 -1.29904 0
    endloop
  endfacet
  facet normal -0 0 -1
    outer loop
      vertex -28.4918 -0.156793 0
      vertex -32 -17 0
      vertex -28.5 0 0
    endloop
  endfacet
  facet normal -0 0 -1
    outer loop
      vertex -28.4672 -0.311867 0
      vertex -32 -17 0
      vertex -28.4918 -0.156793 0
    endloop
  endfacet
  facet normal -0 0 -1
    outer loop
      vertex -28.4266 -0.463525 0
      vertex -32 -17 0
      vertex -28.4672 -0.311867 0
    endloop
  endfacet
  facet normal -0 0 -1
    outer loop
      vertex -28.3703 -0.610105 0
      vertex -32 -17 0
      vertex -28.4266 -0.463525 0
    endloop
  endfacet
  facet normal -0 0 -1
    outer loop
      vertex -28.299 -0.749999 0
      vertex -32 -17 0
      vertex -28.3703 -0.610105 0
    endloop
  endfacet
  facet normal -0 0 -1
    outer loop
      vertex -28.2135 -0.881678 0
      vertex -32 -17 0
      vertex -28.299 -0.749999 0
    endloop
  endfacet
  facet normal -0 0 -1
    outer loop
      vertex -28.1147 -1.0037 0
      vertex -32 -17 0
      vertex -28.2135 -0.881678 0
    endloop
  endfacet
  facet normal -0 0 -1
    outer loop
      vertex -28.0037 -1.11472 0
      vertex -32 -17 0
      vertex -28.1147 -1.0037 0
    endloop
  endfacet
  facet normal -0 0 -1
    outer loop
      vertex -27.8817 -1.21352 0
      vertex -32 -17 0
      vertex -28.0037 -1.11472 0
    endloop
  endfacet
  facet normal -0 0 -1
    outer loop
      vertex -27.75 -1.29904 0
      vertex -32 -17 0
      vertex -27.8817 -1.21352 0
    endloop
  endfacet
  facet normal 0 0 -1
    outer loop
      vertex -32 -17 0
      vertex -8.5 -14 0
      vertex 32 -17 0
    endloop
  endfacet
  facet normal 0 0 -1
    outer loop
      vertex 28.4918 0.156793 0
      vertex 32 17 0
      vertex 28.5 0 0
    endloop
  endfacet
  facet normal 0 0 -1
    outer loop
      vertex 28.4672 0.311867 0
      vertex 32 17 0
      vertex 28.4918 0.156793 0
    endloop
  endfacet
  facet normal 0 0 -1
    outer loop
      vertex 28.4266 0.463525 0
      vertex 32 17 0
      vertex 28.4672 0.311867 0
    endloop
  endfacet
  facet normal 0 0 -1
    outer loop
      vertex 28.3703 0.610105 0
      vertex 32 17 0
      vertex 28.4266 0.463525 0
    endloop
  endfacet
  facet normal 0 0 -1
    outer loop
      vertex 28.299 0.749999 0
      vertex 32 17 0
      vertex 28.3703 0.610105 0
    endloop
  endfacet
  facet normal 0 0 -1
    outer loop
      vertex 28.2135 0.881678 0
      vertex 32 17 0
      vertex 28.299 0.749999 0
    endloop
  endfacet
  facet normal 0 0 -1
    outer loop
      vertex 28.1147 1.0037 0
      vertex 32 17 0
      vertex 28.2135 0.881678 0
    endloop
  endfacet
  facet normal 0 0 -1
    outer loop
      vertex 28.0037 1.11472 0
      vertex 32 17 0
      vertex 28.1147 1.0037 0
    endloop
  endfacet
  facet normal 0 0 -1
    outer loop
      vertex 27.8817 1.21352 0
      vertex 32 17 0
      vertex 28.0037 1.11472 0
    endloop
  endfacet
  facet normal 0 0 -1
    outer loop
      vertex 27.75 1.29904 0
      vertex 32 17 0
      vertex 27.8817 1.21352 0
    endloop
  endfacet
  facet normal 0 0 -1
    outer loop
      vertex 27.6101 1.37032 0
      vertex 32 17 0
      vertex 27.75 1.29904 0
    endloop
  endfacet
  facet normal 0 0 -1
    outer loop
      vertex 27.4635 1.42658 0
      vertex 32 17 0
      vertex 27.6101 1.37032 0
    endloop
  endfacet
  facet normal 0 0 -1
    outer loop
      vertex 27.3119 1.46722 0
      vertex 32 17 0
      vertex 27.4635 1.42658 0
    endloop
  endfacet
  facet normal 0 0 -1
    outer loop
      vertex 27.1568 1.49178 0
      vertex 32 17 0
      vertex 27.3119 1.46722 0
    endloop
  endfacet
  facet normal 0 0 -1
    outer loop
      vertex 27 1.5 0
      vertex 32 17 0
      vertex 27.1568 1.49178 0
    endloop
  endfacet
  facet normal 0 0 -1
    outer loop
      vertex 26.8432 1.49178 0
      vertex 32 17 0
      vertex 27 1.5 0
    endloop
  endfacet
  facet normal 0 0 -1
    outer loop
      vertex 26.6881 1.46722 0
      vertex 32 17 0
      vertex 26.8432 1.49178 0
    endloop
  endfacet
  facet normal 0 0 -1
    outer loop
      vertex 26.5365 1.42658 0
      vertex 32 17 0
      vertex 26.6881 1.46722 0
    endloop
  endfacet
  facet normal 0 0 -1
    outer loop
      vertex 26.3899 1.37032 0
      vertex 32 17 0
      vertex 26.5365 1.42658 0
    endloop
  endfacet
  facet normal 0 0 -1
    outer loop
      vertex 26.25 1.29904 0
      vertex 32 17 0
      vertex 26.3899 1.37032 0
    endloop
  endfacet
  facet normal 0 0 -1
    outer loop
      vertex 26.1183 1.21352 0
      vertex 32 17 0
      vertex 26.25 1.29904 0
    endloop
  endfacet
  facet normal 0 0 -1
    outer loop
      vertex 25.9963 1.11472 0
      vertex 32 17 0
      vertex 26.1183 1.21352 0
    endloop
  endfacet
  facet normal 0 0 -1
    outer loop
      vertex 25.8853 1.0037 0
      vertex 32 17 0
      vertex 25.9963 1.11472 0
    endloop
  endfacet
  facet normal 0 0 -1
    outer loop
      vertex 25.7865 0.881678 0
      vertex 32 17 0
      vertex 25.8853 1.0037 0
    endloop
  endfacet
  facet normal 0 0 -1
    outer loop
      vertex 8.5 -9 0
      vertex 25.7865 0.881678 0
      vertex 25.701 0.749999 0
    endloop
  endfacet
  facet normal 0 0 -1
    outer loop
      vertex 8.5 -9 0
      vertex 25.701 0.749999 0
      vertex 25.6297 0.610105 0
    endloop
  endfacet
  facet normal -0 0 -1
    outer loop
      vertex 25.5082 -0.156793 0
      vertex 8.5 -9 0
      vertex 25.5 0 0
    endloop
  endfacet
  facet normal -0 0 -1
    outer loop
      vertex 25.5 0 0
      vertex 8.5 -9 0
      vertex 25.5082 0.156793 0
    endloop
  endfacet
  facet normal -0 0 -1
    outer loop
      vertex 25.5082 0.156793 0
      vertex 8.5 -9 0
      vertex 25.5328 0.311867 0
    endloop
  endfacet
  facet normal -0 0 -1
    outer loop
      vertex 25.5328 0.311867 0
      vertex 8.5 -9 0
      vertex 25.5734 0.463525 0
    endloop
  endfacet
  facet normal -0 0 -1
    outer loop
      vertex 25.5734 0.463525 0
      vertex 8.5 -9 0
      vertex 25.6297 0.610105 0
    endloop
  endfacet
  facet normal -0 0 -1
    outer loop
      vertex 25.7865 0.881678 0
      vertex 8.5 -9 0
      vertex 32 17 0
    endloop
  endfacet
  facet normal 0 0 -1
    outer loop
      vertex -8.5 -9 0
      vertex 32 17 0
      vertex 8.5 -9 0
    endloop
  endfacet
  facet normal 0 0 -1
    outer loop
      vertex -25.5082 0.156793 0
      vertex -8.5 -9 0
      vertex -25.5 0 0
    endloop
  endfacet
  facet normal 0 0 -1
    outer loop
      vertex -25.5328 0.311867 0
      vertex -8.5 -9 0
      vertex -25.5082 0.156793 0
    endloop
  endfacet
  facet normal 0 0 -1
    outer loop
      vertex -25.5734 0.463525 0
      vertex -8.5 -9 0
      vertex -25.5328 0.311867 0
    endloop
  endfacet
  facet normal 0 0 -1
    outer loop
      vertex -25.6297 0.610105 0
      vertex -8.5 -9 0
      vertex -25.5734 0.463525 0
    endloop
  endfacet
  facet normal 0 0 -1
    outer loop
      vertex -25.701 0.749999 0
      vertex -8.5 -9 0
      vertex -25.6297 0.610105 0
    endloop
  endfacet
  facet normal 0 0 -1
    outer loop
      vertex -25.7865 0.881678 0
      vertex -8.5 -9 0
      vertex -25.701 0.749999 0
    endloop
  endfacet
  facet normal 0 0 -1
    outer loop
      vertex -32 17 0
      vertex -8.5 -9 0
      vertex -25.7865 0.881678 0
    endloop
  endfacet
  facet normal 0 0 -1
    outer loop
      vertex -32 17 0
      vertex -25.7865 0.881678 0
      vertex -25.8853 1.0037 0
    endloop
  endfacet
  facet normal 0 0 -1
    outer loop
      vertex -32 17 0
      vertex -25.8853 1.0037 0
      vertex -25.9963 1.11472 0
    endloop
  endfacet
  facet normal 0 0 -1
    outer loop
      vertex -32 17 0
      vertex -25.9963 1.11472 0
      vertex -26.1183 1.21352 0
    endloop
  endfacet
  facet normal 0 0 -1
    outer loop
      vertex -32 17 0
      vertex -26.1183 1.21352 0
      vertex -26.25 1.29904 0
    endloop
  endfacet
  facet normal 0 0 -1
    outer loop
      vertex -32 17 0
      vertex -26.25 1.29904 0
      vertex -26.3899 1.37032 0
    endloop
  endfacet
  facet normal 0 0 -1
    outer loop
      vertex -32 17 0
      vertex -26.3899 1.37032 0
      vertex -26.5365 1.42658 0
    endloop
  endfacet
  facet normal 0 0 -1
    outer loop
      vertex -32 17 0
      vertex -26.5365 1.42658 0
      vertex -26.6881 1.46722 0
    endloop
  endfacet
  facet normal 0 0 -1
    outer loop
      vertex -32 17 0
      vertex -26.6881 1.46722 0
      vertex -26.8432 1.49178 0
    endloop
  endfacet
  facet normal 0 0 -1
    outer loop
      vertex -32 17 0
      vertex -26.8432 1.49178 0
      vertex -27 1.5 0
    endloop
  endfacet
  facet normal 0 0 -1
    outer loop
      vertex -32 17 0
      vertex -27 1.5 0
      vertex -27.1568 1.49178 0
    endloop
  endfacet
  facet normal 0 0 -1
    outer loop
      vertex -32 17 0
      vertex -27.1568 1.49178 0
      vertex -27.3119 1.46722 0
    endloop
  endfacet
  facet normal 0 0 -1
    outer loop
      vertex -32 17 0
      vertex -28.5 0 0
      vertex -32 -17 0
    endloop
  endfacet
  facet normal 0 0 -1
    outer loop
      vertex -28.5 0 0
      vertex -32 17 0
      vertex -28.4918 0.156793 0
    endloop
  endfacet
  facet normal 0 0 -1
    outer loop
      vertex -8.5 -9 0
      vertex -32 17 0
      vertex 32 17 0
    endloop
  endfacet
  facet normal 0 0 -1
    outer loop
      vertex -27.4635 1.42658 0
      vertex -32 17 0
      vertex -27.3119 1.46722 0
    endloop
  endfacet
  facet normal 0 0 -1
    outer loop
      vertex -27.6101 1.37032 0
      vertex -32 17 0
      vertex -27.4635 1.42658 0
    endloop
  endfacet
  facet normal 0 0 -1
    outer loop
      vertex -27.75 1.29904 0
      vertex -32 17 0
      vertex -27.6101 1.37032 0
    endloop
  endfacet
  facet normal 0 0 -1
    outer loop
      vertex -27.8817 1.21352 0
      vertex -32 17 0
      vertex -27.75 1.29904 0
    endloop
  endfacet
  facet normal 0 0 -1
    outer loop
      vertex -28.0037 1.11472 0
      vertex -32 17 0
      vertex -27.8817 1.21352 0
    endloop
  endfacet
  facet normal 0 0 -1
    outer loop
      vertex -28.1147 1.0037 0
      vertex -32 17 0
      vertex -28.0037 1.11472 0
    endloop
  endfacet
  facet normal 0 0 -1
    outer loop
      vertex -28.2135 0.881678 0
      vertex -32 17 0
      vertex -28.1147 1.0037 0
    endloop
  endfacet
  facet normal 0 0 -1
    outer loop
      vertex -28.299 0.749999 0
      vertex -32 17 0
      vertex -28.2135 0.881678 0
    endloop
  endfacet
  facet normal 0 0 -1
    outer loop
      vertex -28.3703 0.610105 0
      vertex -32 17 0
      vertex -28.299 0.749999 0
    endloop
  endfacet
  facet normal 0 0 -1
    outer loop
      vertex -28.4266 0.463525 0
      vertex -32 17 0
      vertex -28.3703 0.610105 0
    endloop
  endfacet
  facet normal 0 0 -1
    outer loop
      vertex -28.4672 0.311867 0
      vertex -32 17 0
      vertex -28.4266 0.463525 0
    endloop
  endfacet
  facet normal 0 0 -1
    outer loop
      vertex -28.4918 0.156793 0
      vertex -32 17 0
      vertex -28.4672 0.311867 0
    endloop
  endfacet
  facet normal 0 -1 0
    outer loop
      vertex -32 -17 0
      vertex 32 -17 3
      vertex -32 -17 3
    endloop
  endfacet
  facet normal 0 -1 -0
    outer loop
      vertex 32 -17 3
      vertex -32 -17 0
      vertex 32 -17 0
    endloop
  endfacet
  facet normal 0 1 -0
    outer loop
      vertex 32 17 0
      vertex -32 17 3
      vertex 32 17 3
    endloop
  endfacet
  facet normal 0 1 0
    outer loop
      vertex -32 17 3
      vertex 32 17 0
      vertex -32 17 0
    endloop
  endfacet
  facet normal -1 0 0
    outer loop
      vertex -8 -8 3
      vertex -8 8 6
      vertex -8 8 3
    endloop
  endfacet
  facet normal -1 -0 0
    outer loop
      vertex -8 8 6
      vertex -8 -8 3
      vertex -8 -8 6
    endloop
  endfacet
  facet normal -0 0 1
    outer loop
      vertex -8 8 6
      vertex 8 -8 6
      vertex 8 8 6
    endloop
  endfacet
  facet normal 0 0 1
    outer loop
      vertex 8 -8 6
      vertex -8 8 6
      vertex -8 -8 6
    endloop
  endfacet
  facet normal 1 -0 0
    outer loop
      vertex 8 -8 6
      vertex 8 8 3
      vertex 8 8 6
    endloop
  endfacet
  facet normal 1 0 0
    outer loop
      vertex 8 8 3
      vertex 8 -8 6
      vertex 8 -8 3
    endloop
  endfacet
  facet normal 0 -1 0
    outer loop
      vertex -8 -8 3
      vertex 8 -8 6
      vertex -8 -8 6
    endloop
  endfacet
  facet normal 0 -1 -0
    outer loop
      vertex 8 -8 6
      vertex -8 -8 3
      vertex 8 -8 3
    endloop
  endfacet
  facet normal 0 1 -0
    outer loop
      vertex 8 8 3
      vertex -8 8 6
      vertex 8 8 6
    endloop
  endfacet
  facet normal 0 1 0
    outer loop
      vertex -8 8 6
      vertex 8 8 3
      vertex -8 8 3
    endloop
  endfacet
  facet normal -0.99863 -0.0523341 0
    outer loop
      vertex 28.5 0 0
      vertex 28.4918 0.156793 3
      vertex 28.4918 0.156793 0
    endloop
  endfacet
  facet normal -0.99863 -0.0523341 0
    outer loop
      vertex 28.4918 0.156793 3
      vertex 28.5 0 0
      vertex 28.5 0 3
    endloop
  endfacet
  facet normal 0.0523398 -0.998629 0
    outer loop
      vertex 26.8432 1.49178 0
      vertex 27 1.5 3
      vertex 26.8432 1.49178 3
    endloop
  endfacet
  facet normal 0.0523398 -0.998629 0
    outer loop
      vertex 27 1.5 3
      vertex 26.8432 1.49178 0
      vertex 27 1.5 0
    endloop
  endfacet
  facet normal -0.0523404 0.998629 0
    outer loop
      vertex 27.1568 -1.49178 0
      vertex 27 -1.5 3
      vertex 27.1568 -1.49178 3
    endloop
  endfacet
  facet normal -0.0523404 0.998629 0
    outer loop
      vertex 27 -1.5 3
      vertex 27.1568 -1.49178 0
      vertex 27 -1.5 0
    endloop
  endfacet
  facet normal -0.629318 -0.777148 0
    outer loop
      vertex 27.8817 1.21352 0
      vertex 28.0037 1.11472 3
      vertex 27.8817 1.21352 3
    endloop
  endfacet
  facet normal -0.629318 -0.777148 -0
    outer loop
      vertex 28.0037 1.11472 3
      vertex 27.8817 1.21352 0
      vertex 28.0037 1.11472 0
    endloop
  endfacet
  facet normal 0.777145 -0.629321 0
    outer loop
      vertex 25.7865 0.881678 3
      vertex 25.8853 1.0037 0
      vertex 25.8853 1.0037 3
    endloop
  endfacet
  facet normal 0.777145 -0.629321 0
    outer loop
      vertex 25.8853 1.0037 0
      vertex 25.7865 0.881678 3
      vertex 25.7865 0.881678 0
    endloop
  endfacet
  facet normal 0.453989 -0.891007 0
    outer loop
      vertex 26.25 1.29904 0
      vertex 26.3899 1.37032 3
      vertex 26.25 1.29904 3
    endloop
  endfacet
  facet normal 0.453989 -0.891007 0
    outer loop
      vertex 26.3899 1.37032 3
      vertex 26.25 1.29904 0
      vertex 26.3899 1.37032 0
    endloop
  endfacet
  facet normal -0.891007 -0.453989 0
    outer loop
      vertex 28.3703 0.610105 0
      vertex 28.299 0.749999 3
      vertex 28.299 0.749999 0
    endloop
  endfacet
  facet normal -0.891007 -0.453989 0
    outer loop
      vertex 28.299 0.749999 3
      vertex 28.3703 0.610105 0
      vertex 28.3703 0.610105 3
    endloop
  endfacet
  facet normal -0.258823 -0.965925 0
    outer loop
      vertex 27.3119 1.46722 0
      vertex 27.4635 1.42658 3
      vertex 27.3119 1.46722 3
    endloop
  endfacet
  facet normal -0.258823 -0.965925 -0
    outer loop
      vertex 27.4635 1.42658 3
      vertex 27.3119 1.46722 0
      vertex 27.4635 1.42658 0
    endloop
  endfacet
  facet normal -0.453984 -0.89101 0
    outer loop
      vertex 27.6101 1.37032 0
      vertex 27.75 1.29904 3
      vertex 27.6101 1.37032 3
    endloop
  endfacet
  facet normal -0.453984 -0.89101 -0
    outer loop
      vertex 27.75 1.29904 3
      vertex 27.6101 1.37032 0
      vertex 27.75 1.29904 0
    endloop
  endfacet
  facet normal 0.965927 -0.258816 0
    outer loop
      vertex 25.5328 0.311867 3
      vertex 25.5734 0.463525 0
      vertex 25.5734 0.463525 3
    endloop
  endfacet
  facet normal 0.965927 -0.258816 0
    outer loop
      vertex 25.5734 0.463525 0
      vertex 25.5328 0.311867 3
      vertex 25.5328 0.311867 0
    endloop
  endfacet
  facet normal 0.987689 -0.156432 0
    outer loop
      vertex 25.5082 0.156793 3
      vertex 25.5328 0.311867 0
      vertex 25.5328 0.311867 3
    endloop
  endfacet
  facet normal 0.987689 -0.156432 0
    outer loop
      vertex 25.5328 0.311867 0
      vertex 25.5082 0.156793 3
      vertex 25.5082 0.156793 0
    endloop
  endfacet
  facet normal 0.25882 -0.965926 0
    outer loop
      vertex 26.5365 1.42658 0
      vertex 26.6881 1.46722 3
      vertex 26.5365 1.42658 3
    endloop
  endfacet
  facet normal 0.25882 -0.965926 0
    outer loop
      vertex 26.6881 1.46722 3
      vertex 26.5365 1.42658 0
      vertex 26.6881 1.46722 0
    endloop
  endfacet
  facet normal -0.965927 -0.258816 0
    outer loop
      vertex 28.4672 0.311867 0
      vertex 28.4266 0.463525 3
      vertex 28.4266 0.463525 0
    endloop
  endfacet
  facet normal -0.965927 -0.258816 0
    outer loop
      vertex 28.4266 0.463525 3
      vertex 28.4672 0.311867 0
      vertex 28.4672 0.311867 3
    endloop
  endfacet
  facet normal -0.987687 -0.156444 0
    outer loop
      vertex 28.4918 0.156793 0
      vertex 28.4672 0.311867 3
      vertex 28.4672 0.311867 0
    endloop
  endfacet
  facet normal -0.987687 -0.156444 0
    outer loop
      vertex 28.4672 0.311867 3
      vertex 28.4918 0.156793 0
      vertex 28.4918 0.156793 3
    endloop
  endfacet
  facet normal -0.93358 -0.358368 0
    outer loop
      vertex 28.4266 0.463525 0
      vertex 28.3703 0.610105 3
      vertex 28.3703 0.610105 0
    endloop
  endfacet
  facet normal -0.93358 -0.358368 0
    outer loop
      vertex 28.3703 0.610105 3
      vertex 28.4266 0.463525 0
      vertex 28.4266 0.463525 3
    endloop
  endfacet
  facet normal -0.777145 -0.629321 0
    outer loop
      vertex 28.2135 0.881678 0
      vertex 28.1147 1.0037 3
      vertex 28.1147 1.0037 0
    endloop
  endfacet
  facet normal -0.777145 -0.629321 0
    outer loop
      vertex 28.1147 1.0037 3
      vertex 28.2135 0.881678 0
      vertex 28.2135 0.881678 3
    endloop
  endfacet
  facet normal -0.707113 -0.707101 0
    outer loop
      vertex 28.1147 1.0037 0
      vertex 28.0037 1.11472 3
      vertex 28.0037 1.11472 0
    endloop
  endfacet
  facet normal -0.707113 -0.707101 0
    outer loop
      vertex 28.0037 1.11472 3
      vertex 28.1147 1.0037 0
      vertex 28.1147 1.0037 3
    endloop
  endfacet
  facet normal -0.838668 -0.544644 0
    outer loop
      vertex 28.299 0.749999 0
      vertex 28.2135 0.881678 3
      vertex 28.2135 0.881678 0
    endloop
  endfacet
  facet normal -0.838668 -0.544644 0
    outer loop
      vertex 28.2135 0.881678 3
      vertex 28.299 0.749999 0
      vertex 28.299 0.749999 3
    endloop
  endfacet
  facet normal -0.156431 -0.987689 0
    outer loop
      vertex 27.1568 1.49178 0
      vertex 27.3119 1.46722 3
      vertex 27.1568 1.49178 3
    endloop
  endfacet
  facet normal -0.156431 -0.987689 -0
    outer loop
      vertex 27.3119 1.46722 3
      vertex 27.1568 1.49178 0
      vertex 27.3119 1.46722 0
    endloop
  endfacet
  facet normal -0.0523404 -0.998629 0
    outer loop
      vertex 27 1.5 0
      vertex 27.1568 1.49178 3
      vertex 27 1.5 3
    endloop
  endfacet
  facet normal -0.0523404 -0.998629 -0
    outer loop
      vertex 27.1568 1.49178 3
      vertex 27 1.5 0
      vertex 27.1568 1.49178 0
    endloop
  endfacet
  facet normal -0.358368 -0.93358 0
    outer loop
      vertex 27.4635 1.42658 0
      vertex 27.6101 1.37032 3
      vertex 27.4635 1.42658 3
    endloop
  endfacet
  facet normal -0.358368 -0.93358 -0
    outer loop
      vertex 27.6101 1.37032 3
      vertex 27.4635 1.42658 0
      vertex 27.6101 1.37032 0
    endloop
  endfacet
  facet normal -0.544642 -0.838669 0
    outer loop
      vertex 27.75 1.29904 0
      vertex 27.8817 1.21352 3
      vertex 27.75 1.29904 3
    endloop
  endfacet
  facet normal -0.544642 -0.838669 -0
    outer loop
      vertex 27.8817 1.21352 3
      vertex 27.75 1.29904 0
      vertex 27.8817 1.21352 0
    endloop
  endfacet
  facet normal 0.891002 -0.453999 0
    outer loop
      vertex 25.6297 0.610105 3
      vertex 25.701 0.749999 0
      vertex 25.701 0.749999 3
    endloop
  endfacet
  facet normal 0.891002 -0.453999 0
    outer loop
      vertex 25.701 0.749999 0
      vertex 25.6297 0.610105 3
      vertex 25.6297 0.610105 0
    endloop
  endfacet
  facet normal 0.838673 -0.544635 0
    outer loop
      vertex 25.701 0.749999 3
      vertex 25.7865 0.881678 0
      vertex 25.7865 0.881678 3
    endloop
  endfacet
  facet normal 0.838673 -0.544635 0
    outer loop
      vertex 25.7865 0.881678 0
      vertex 25.701 0.749999 3
      vertex 25.701 0.749999 0
    endloop
  endfacet
  facet normal 0.93358 -0.358368 0
    outer loop
      vertex 25.5734 0.463525 3
      vertex 25.6297 0.610105 0
      vertex 25.6297 0.610105 3
    endloop
  endfacet
  facet normal 0.93358 -0.358368 0
    outer loop
      vertex 25.6297 0.610105 0
      vertex 25.5734 0.463525 3
      vertex 25.5734 0.463525 0
    endloop
  endfacet
  facet normal 0.99863 -0.0523341 0
    outer loop
      vertex 25.5 0 3
      vertex 25.5082 0.156793 0
      vertex 25.5082 0.156793 3
    endloop
  endfacet
  facet normal 0.99863 -0.0523341 0
    outer loop
      vertex 25.5082 0.156793 0
      vertex 25.5 0 3
      vertex 25.5 0 0
    endloop
  endfacet
  facet normal 0.629324 -0.777143 0
    outer loop
      vertex 25.9963 1.11472 0
      vertex 26.1183 1.21352 3
      vertex 25.9963 1.11472 3
    endloop
  endfacet
  facet normal 0.629324 -0.777143 0
    outer loop
      vertex 26.1183 1.21352 3
      vertex 25.9963 1.11472 0
      vertex 26.1183 1.21352 0
    endloop
  endfacet
  facet normal 0.544636 -0.838672 0
    outer loop
      vertex 26.1183 1.21352 0
      vertex 26.25 1.29904 3
      vertex 26.1183 1.21352 3
    endloop
  endfacet
  facet normal 0.544636 -0.838672 0
    outer loop
      vertex 26.25 1.29904 3
      vertex 26.1183 1.21352 0
      vertex 26.25 1.29904 0
    endloop
  endfacet
  facet normal 0.707107 -0.707107 0
    outer loop
      vertex 25.8853 1.0037 3
      vertex 25.9963 1.11472 0
      vertex 25.9963 1.11472 3
    endloop
  endfacet
  facet normal 0.707107 -0.707107 0
    outer loop
      vertex 25.9963 1.11472 0
      vertex 25.8853 1.0037 3
      vertex 25.8853 1.0037 0
    endloop
  endfacet
  facet normal 0.358368 -0.93358 0
    outer loop
      vertex 26.3899 1.37032 0
      vertex 26.5365 1.42658 3
      vertex 26.3899 1.37032 3
    endloop
  endfacet
  facet normal 0.358368 -0.93358 0
    outer loop
      vertex 26.5365 1.42658 3
      vertex 26.3899 1.37032 0
      vertex 26.5365 1.42658 0
    endloop
  endfacet
  facet normal 0.156433 -0.987689 0
    outer loop
      vertex 26.6881 1.46722 0
      vertex 26.8432 1.49178 3
      vertex 26.6881 1.46722 3
    endloop
  endfacet
  facet normal 0.156433 -0.987689 0
    outer loop
      vertex 26.8432 1.49178 3
      vertex 26.6881 1.46722 0
      vertex 26.8432 1.49178 0
    endloop
  endfacet
  facet normal -0.99863 0.0523341 0
    outer loop
      vertex 28.4918 -0.156793 0
      vertex 28.5 0 3
      vertex 28.5 0 0
    endloop
  endfacet
  facet normal -0.99863 0.0523341 0
    outer loop
      vertex 28.5 0 3
      vertex 28.4918 -0.156793 0
      vertex 28.4918 -0.156793 3
    endloop
  endfacet
  facet normal -0.777145 0.629321 0
    outer loop
      vertex 28.1147 -1.0037 0
      vertex 28.2135 -0.881678 3
      vertex 28.2135 -0.881678 0
    endloop
  endfacet
  facet normal -0.777145 0.629321 0
    outer loop
      vertex 28.2135 -0.881678 3
      vertex 28.1147 -1.0037 0
      vertex 28.1147 -1.0037 3
    endloop
  endfacet
  facet normal -0.987687 0.156444 0
    outer loop
      vertex 28.4672 -0.311867 0
      vertex 28.4918 -0.156793 3
      vertex 28.4918 -0.156793 0
    endloop
  endfacet
  facet normal -0.987687 0.156444 0
    outer loop
      vertex 28.4918 -0.156793 3
      vertex 28.4672 -0.311867 0
      vertex 28.4672 -0.311867 3
    endloop
  endfacet
  facet normal 0.99863 0.0523341 0
    outer loop
      vertex 25.5082 -0.156793 3
      vertex 25.5 0 0
      vertex 25.5 0 3
    endloop
  endfacet
  facet normal 0.99863 0.0523341 0
    outer loop
      vertex 25.5 0 0
      vertex 25.5082 -0.156793 3
      vertex 25.5082 -0.156793 0
    endloop
  endfacet
  facet normal -0.838668 0.544644 0
    outer loop
      vertex 28.2135 -0.881678 0
      vertex 28.299 -0.749999 3
      vertex 28.299 -0.749999 0
    endloop
  endfacet
  facet normal -0.838668 0.544644 0
    outer loop
      vertex 28.299 -0.749999 3
      vertex 28.2135 -0.881678 0
      vertex 28.2135 -0.881678 3
    endloop
  endfacet
  facet normal -0.707113 0.707101 0
    outer loop
      vertex 28.0037 -1.11472 0
      vertex 28.1147 -1.0037 3
      vertex 28.1147 -1.0037 0
    endloop
  endfacet
  facet normal -0.707113 0.707101 0
    outer loop
      vertex 28.1147 -1.0037 3
      vertex 28.0037 -1.11472 0
      vertex 28.0037 -1.11472 3
    endloop
  endfacet
  facet normal -0.93358 0.358368 0
    outer loop
      vertex 28.3703 -0.610105 0
      vertex 28.4266 -0.463525 3
      vertex 28.4266 -0.463525 0
    endloop
  endfacet
  facet normal -0.93358 0.358368 0
    outer loop
      vertex 28.4266 -0.463525 3
      vertex 28.3703 -0.610105 0
      vertex 28.3703 -0.610105 3
    endloop
  endfacet
  facet normal 0.93358 0.358368 0
    outer loop
      vertex 25.6297 -0.610105 3
      vertex 25.5734 -0.463525 0
      vertex 25.5734 -0.463525 3
    endloop
  endfacet
  facet normal 0.93358 0.358368 0
    outer loop
      vertex 25.5734 -0.463525 0
      vertex 25.6297 -0.610105 3
      vertex 25.6297 -0.610105 0
    endloop
  endfacet
  facet normal 0.891002 0.453999 0
    outer loop
      vertex 25.701 -0.749999 3
      vertex 25.6297 -0.610105 0
      vertex 25.6297 -0.610105 3
    endloop
  endfacet
  facet normal 0.891002 0.453999 0
    outer loop
      vertex 25.6297 -0.610105 0
      vertex 25.701 -0.749999 3
      vertex 25.701 -0.749999 0
    endloop
  endfacet
  facet normal -0.453984 0.89101 0
    outer loop
      vertex 27.75 -1.29904 0
      vertex 27.6101 -1.37032 3
      vertex 27.75 -1.29904 3
    endloop
  endfacet
  facet normal -0.453984 0.89101 0
    outer loop
      vertex 27.6101 -1.37032 3
      vertex 27.75 -1.29904 0
      vertex 27.6101 -1.37032 0
    endloop
  endfacet
  facet normal -0.358368 0.93358 0
    outer loop
      vertex 27.6101 -1.37032 0
      vertex 27.4635 -1.42658 3
      vertex 27.6101 -1.37032 3
    endloop
  endfacet
  facet normal -0.358368 0.93358 0
    outer loop
      vertex 27.4635 -1.42658 3
      vertex 27.6101 -1.37032 0
      vertex 27.4635 -1.42658 0
    endloop
  endfacet
  facet normal -0.258823 0.965925 0
    outer loop
      vertex 27.4635 -1.42658 0
      vertex 27.3119 -1.46722 3
      vertex 27.4635 -1.42658 3
    endloop
  endfacet
  facet normal -0.258823 0.965925 0
    outer loop
      vertex 27.3119 -1.46722 3
      vertex 27.4635 -1.42658 0
      vertex 27.3119 -1.46722 0
    endloop
  endfacet
  facet normal -0.156431 0.987689 0
    outer loop
      vertex 27.3119 -1.46722 0
      vertex 27.1568 -1.49178 3
      vertex 27.3119 -1.46722 3
    endloop
  endfacet
  facet normal -0.156431 0.987689 0
    outer loop
      vertex 27.1568 -1.49178 3
      vertex 27.3119 -1.46722 0
      vertex 27.1568 -1.49178 0
    endloop
  endfacet
  facet normal -0.891007 0.453989 0
    outer loop
      vertex 28.299 -0.749999 0
      vertex 28.3703 -0.610105 3
      vertex 28.3703 -0.610105 0
    endloop
  endfacet
  facet normal -0.891007 0.453989 0
    outer loop
      vertex 28.3703 -0.610105 3
      vertex 28.299 -0.749999 0
      vertex 28.299 -0.749999 3
    endloop
  endfacet
  facet normal -0.965927 0.258816 0
    outer loop
      vertex 28.4266 -0.463525 0
      vertex 28.4672 -0.311867 3
      vertex 28.4672 -0.311867 0
    endloop
  endfacet
  facet normal -0.965927 0.258816 0
    outer loop
      vertex 28.4672 -0.311867 3
      vertex 28.4266 -0.463525 0
      vertex 28.4266 -0.463525 3
    endloop
  endfacet
  facet normal 0.0523398 0.998629 -0
    outer loop
      vertex 27 -1.5 0
      vertex 26.8432 -1.49178 3
      vertex 27 -1.5 3
    endloop
  endfacet
  facet normal 0.0523398 0.998629 0
    outer loop
      vertex 26.8432 -1.49178 3
      vertex 27 -1.5 0
      vertex 26.8432 -1.49178 0
    endloop
  endfacet
  facet normal 0.25882 0.965926 -0
    outer loop
      vertex 26.6881 -1.46722 0
      vertex 26.5365 -1.42658 3
      vertex 26.6881 -1.46722 3
    endloop
  endfacet
  facet normal 0.25882 0.965926 0
    outer loop
      vertex 26.5365 -1.42658 3
      vertex 26.6881 -1.46722 0
      vertex 26.5365 -1.42658 0
    endloop
  endfacet
  facet normal 0.156433 0.987689 -0
    outer loop
      vertex 26.8432 -1.49178 0
      vertex 26.6881 -1.46722 3
      vertex 26.8432 -1.49178 3
    endloop
  endfacet
  facet normal 0.156433 0.987689 0
    outer loop
      vertex 26.6881 -1.46722 3
      vertex 26.8432 -1.49178 0
      vertex 26.6881 -1.46722 0
    endloop
  endfacet
  facet normal 0.629324 0.777143 -0
    outer loop
      vertex 26.1183 -1.21352 0
      vertex 25.9963 -1.11472 3
      vertex 26.1183 -1.21352 3
    endloop
  endfacet
  facet normal 0.629324 0.777143 0
    outer loop
      vertex 25.9963 -1.11472 3
      vertex 26.1183 -1.21352 0
      vertex 25.9963 -1.11472 0
    endloop
  endfacet
  facet normal 0.965927 0.258816 0
    outer loop
      vertex 25.5734 -0.463525 3
      vertex 25.5328 -0.311867 0
      vertex 25.5328 -0.311867 3
    endloop
  endfacet
  facet normal 0.965927 0.258816 0
    outer loop
      vertex 25.5328 -0.311867 0
      vertex 25.5734 -0.463525 3
      vertex 25.5734 -0.463525 0
    endloop
  endfacet
  facet normal 0.987689 0.156432 0
    outer loop
      vertex 25.5328 -0.311867 3
      vertex 25.5082 -0.156793 0
      vertex 25.5082 -0.156793 3
    endloop
  endfacet
  facet normal 0.987689 0.156432 0
    outer loop
      vertex 25.5082 -0.156793 0
      vertex 25.5328 -0.311867 3
      vertex 25.5328 -0.311867 0
    endloop
  endfacet
  facet normal -0.629318 0.777148 0
    outer loop
      vertex 28.0037 -1.11472 0
      vertex 27.8817 -1.21352 3
      vertex 28.0037 -1.11472 3
    endloop
  endfacet
  facet normal -0.629318 0.777148 0
    outer loop
      vertex 27.8817 -1.21352 3
      vertex 28.0037 -1.11472 0
      vertex 27.8817 -1.21352 0
    endloop
  endfacet
  facet normal -0.544642 0.838669 0
    outer loop
      vertex 27.8817 -1.21352 0
      vertex 27.75 -1.29904 3
      vertex 27.8817 -1.21352 3
    endloop
  endfacet
  facet normal -0.544642 0.838669 0
    outer loop
      vertex 27.75 -1.29904 3
      vertex 27.8817 -1.21352 0
      vertex 27.75 -1.29904 0
    endloop
  endfacet
  facet normal 0.544636 0.838672 -0
    outer loop
      vertex 26.25 -1.29904 0
      vertex 26.1183 -1.21352 3
      vertex 26.25 -1.29904 3
    endloop
  endfacet
  facet normal 0.544636 0.838672 0
    outer loop
      vertex 26.1183 -1.21352 3
      vertex 26.25 -1.29904 0
      vertex 26.1183 -1.21352 0
    endloop
  endfacet
  facet normal 0.777145 0.629321 0
    outer loop
      vertex 25.8853 -1.0037 3
      vertex 25.7865 -0.881678 0
      vertex 25.7865 -0.881678 3
    endloop
  endfacet
  facet normal 0.777145 0.629321 0
    outer loop
      vertex 25.7865 -0.881678 0
      vertex 25.8853 -1.0037 3
      vertex 25.8853 -1.0037 0
    endloop
  endfacet
  facet normal 0.838673 0.544635 0
    outer loop
      vertex 25.7865 -0.881678 3
      vertex 25.701 -0.749999 0
      vertex 25.701 -0.749999 3
    endloop
  endfacet
  facet normal 0.838673 0.544635 0
    outer loop
      vertex 25.701 -0.749999 0
      vertex 25.7865 -0.881678 3
      vertex 25.7865 -0.881678 0
    endloop
  endfacet
  facet normal 0.707107 0.707107 0
    outer loop
      vertex 25.9963 -1.11472 3
      vertex 25.8853 -1.0037 0
      vertex 25.8853 -1.0037 3
    endloop
  endfacet
  facet normal 0.707107 0.707107 0
    outer loop
      vertex 25.8853 -1.0037 0
      vertex 25.9963 -1.11472 3
      vertex 25.9963 -1.11472 0
    endloop
  endfacet
  facet normal 0.358368 0.93358 -0
    outer loop
      vertex 26.5365 -1.42658 0
      vertex 26.3899 -1.37032 3
      vertex 26.5365 -1.42658 3
    endloop
  endfacet
  facet normal 0.358368 0.93358 0
    outer loop
      vertex 26.3899 -1.37032 3
      vertex 26.5365 -1.42658 0
      vertex 26.3899 -1.37032 0
    endloop
  endfacet
  facet normal 0.453989 0.891007 -0
    outer loop
      vertex 26.3899 -1.37032 0
      vertex 26.25 -1.29904 3
      vertex 26.3899 -1.37032 3
    endloop
  endfacet
  facet normal 0.453989 0.891007 0
    outer loop
      vertex 26.25 -1.29904 3
      vertex 26.3899 -1.37032 0
      vertex 26.25 -1.29904 0
    endloop
  endfacet
  facet normal -0.99863 -0.0523341 0
    outer loop
      vertex -25.5 0 0
      vertex -25.5082 0.156793 3
      vertex -25.5082 0.156793 0
    endloop
  endfacet
  facet normal -0.99863 -0.0523341 0
    outer loop
      vertex -25.5082 0.156793 3
      vertex -25.5 0 0
      vertex -25.5 0 3
    endloop
  endfacet
  facet normal 0.99863 -0.0523341 0
    outer loop
      vertex -28.5 0 3
      vertex -28.4918 0.156793 0
      vertex -28.4918 0.156793 3
    endloop
  endfacet
  facet normal 0.99863 -0.0523341 0
    outer loop
      vertex -28.4918 0.156793 0
      vertex -28.5 0 3
      vertex -28.5 0 0
    endloop
  endfacet
  facet normal -0.0523398 -0.998629 0
    outer loop
      vertex -27 1.5 0
      vertex -26.8432 1.49178 3
      vertex -27 1.5 3
    endloop
  endfacet
  facet normal -0.0523398 -0.998629 -0
    outer loop
      vertex -26.8432 1.49178 3
      vertex -27 1.5 0
      vertex -26.8432 1.49178 0
    endloop
  endfacet
  facet normal 0.0523404 0.998629 -0
    outer loop
      vertex -27 -1.5 0
      vertex -27.1568 -1.49178 3
      vertex -27 -1.5 3
    endloop
  endfacet
  facet normal 0.0523404 0.998629 0
    outer loop
      vertex -27.1568 -1.49178 3
      vertex -27 -1.5 0
      vertex -27.1568 -1.49178 0
    endloop
  endfacet
  facet normal -0.707107 -0.707107 0
    outer loop
      vertex -25.8853 1.0037 0
      vertex -25.9963 1.11472 3
      vertex -25.9963 1.11472 0
    endloop
  endfacet
  facet normal -0.707107 -0.707107 0
    outer loop
      vertex -25.9963 1.11472 3
      vertex -25.8853 1.0037 0
      vertex -25.8853 1.0037 3
    endloop
  endfacet
  facet normal 0.629318 -0.777148 0
    outer loop
      vertex -28.0037 1.11472 0
      vertex -27.8817 1.21352 3
      vertex -28.0037 1.11472 3
    endloop
  endfacet
  facet normal 0.629318 -0.777148 0
    outer loop
      vertex -27.8817 1.21352 3
      vertex -28.0037 1.11472 0
      vertex -27.8817 1.21352 0
    endloop
  endfacet
  facet normal 0.358368 -0.93358 0
    outer loop
      vertex -27.6101 1.37032 0
      vertex -27.4635 1.42658 3
      vertex -27.6101 1.37032 3
    endloop
  endfacet
  facet normal 0.358368 -0.93358 0
    outer loop
      vertex -27.4635 1.42658 3
      vertex -27.6101 1.37032 0
      vertex -27.4635 1.42658 0
    endloop
  endfacet
  facet normal 0.965927 0.258816 0
    outer loop
      vertex -28.4266 -0.463525 3
      vertex -28.4672 -0.311867 0
      vertex -28.4672 -0.311867 3
    endloop
  endfacet
  facet normal 0.965927 0.258816 0
    outer loop
      vertex -28.4672 -0.311867 0
      vertex -28.4266 -0.463525 3
      vertex -28.4266 -0.463525 0
    endloop
  endfacet
  facet normal -0.891002 -0.453999 0
    outer loop
      vertex -25.6297 0.610105 0
      vertex -25.701 0.749999 3
      vertex -25.701 0.749999 0
    endloop
  endfacet
  facet normal -0.891002 -0.453999 0
    outer loop
      vertex -25.701 0.749999 3
      vertex -25.6297 0.610105 0
      vertex -25.6297 0.610105 3
    endloop
  endfacet
  facet normal -0.838673 -0.544635 0
    outer loop
      vertex -25.701 0.749999 0
      vertex -25.7865 0.881678 3
      vertex -25.7865 0.881678 0
    endloop
  endfacet
  facet normal -0.838673 -0.544635 0
    outer loop
      vertex -25.7865 0.881678 3
      vertex -25.701 0.749999 0
      vertex -25.701 0.749999 3
    endloop
  endfacet
  facet normal -0.358368 -0.93358 0
    outer loop
      vertex -26.5365 1.42658 0
      vertex -26.3899 1.37032 3
      vertex -26.5365 1.42658 3
    endloop
  endfacet
  facet normal -0.358368 -0.93358 -0
    outer loop
      vertex -26.3899 1.37032 3
      vertex -26.5365 1.42658 0
      vertex -26.3899 1.37032 0
    endloop
  endfacet
  facet normal -0.25882 -0.965926 0
    outer loop
      vertex -26.6881 1.46722 0
      vertex -26.5365 1.42658 3
      vertex -26.6881 1.46722 3
    endloop
  endfacet
  facet normal -0.25882 -0.965926 -0
    outer loop
      vertex -26.5365 1.42658 3
      vertex -26.6881 1.46722 0
      vertex -26.5365 1.42658 0
    endloop
  endfacet
  facet normal 0.838668 -0.544644 0
    outer loop
      vertex -28.299 0.749999 3
      vertex -28.2135 0.881678 0
      vertex -28.2135 0.881678 3
    endloop
  endfacet
  facet normal 0.838668 -0.544644 0
    outer loop
      vertex -28.2135 0.881678 0
      vertex -28.299 0.749999 3
      vertex -28.299 0.749999 0
    endloop
  endfacet
  facet normal 0.777145 -0.629321 0
    outer loop
      vertex -28.2135 0.881678 3
      vertex -28.1147 1.0037 0
      vertex -28.1147 1.0037 3
    endloop
  endfacet
  facet normal 0.777145 -0.629321 0
    outer loop
      vertex -28.1147 1.0037 0
      vertex -28.2135 0.881678 3
      vertex -28.2135 0.881678 0
    endloop
  endfacet
  facet normal 0.453984 -0.89101 0
    outer loop
      vertex -27.75 1.29904 0
      vertex -27.6101 1.37032 3
      vertex -27.75 1.29904 3
    endloop
  endfacet
  facet normal 0.453984 -0.89101 0
    outer loop
      vertex -27.6101 1.37032 3
      vertex -27.75 1.29904 0
      vertex -27.6101 1.37032 0
    endloop
  endfacet
  facet normal 0.156431 -0.987689 0
    outer loop
      vertex -27.3119 1.46722 0
      vertex -27.1568 1.49178 3
      vertex -27.3119 1.46722 3
    endloop
  endfacet
  facet normal 0.156431 -0.987689 0
    outer loop
      vertex -27.1568 1.49178 3
      vertex -27.3119 1.46722 0
      vertex -27.1568 1.49178 0
    endloop
  endfacet
  facet normal -0.891002 0.453999 0
    outer loop
      vertex -25.701 -0.749999 0
      vertex -25.6297 -0.610105 3
      vertex -25.6297 -0.610105 0
    endloop
  endfacet
  facet normal -0.891002 0.453999 0
    outer loop
      vertex -25.6297 -0.610105 3
      vertex -25.701 -0.749999 0
      vertex -25.701 -0.749999 3
    endloop
  endfacet
  facet normal -0.25882 0.965926 0
    outer loop
      vertex -26.5365 -1.42658 0
      vertex -26.6881 -1.46722 3
      vertex -26.5365 -1.42658 3
    endloop
  endfacet
  facet normal -0.25882 0.965926 0
    outer loop
      vertex -26.6881 -1.46722 3
      vertex -26.5365 -1.42658 0
      vertex -26.6881 -1.46722 0
    endloop
  endfacet
  facet normal -0.707107 0.707107 0
    outer loop
      vertex -25.9963 -1.11472 0
      vertex -25.8853 -1.0037 3
      vertex -25.8853 -1.0037 0
    endloop
  endfacet
  facet normal -0.707107 0.707107 0
    outer loop
      vertex -25.8853 -1.0037 3
      vertex -25.9963 -1.11472 0
      vertex -25.9963 -1.11472 3
    endloop
  endfacet
  facet normal -0.965927 0.258816 0
    outer loop
      vertex -25.5734 -0.463525 0
      vertex -25.5328 -0.311867 3
      vertex -25.5328 -0.311867 0
    endloop
  endfacet
  facet normal -0.965927 0.258816 0
    outer loop
      vertex -25.5328 -0.311867 3
      vertex -25.5734 -0.463525 0
      vertex -25.5734 -0.463525 3
    endloop
  endfacet
  facet normal 0.358368 0.93358 -0
    outer loop
      vertex -27.4635 -1.42658 0
      vertex -27.6101 -1.37032 3
      vertex -27.4635 -1.42658 3
    endloop
  endfacet
  facet normal 0.358368 0.93358 0
    outer loop
      vertex -27.6101 -1.37032 3
      vertex -27.4635 -1.42658 0
      vertex -27.6101 -1.37032 0
    endloop
  endfacet
  facet normal 0.891007 0.453989 0
    outer loop
      vertex -28.299 -0.749999 3
      vertex -28.3703 -0.610105 0
      vertex -28.3703 -0.610105 3
    endloop
  endfacet
  facet normal 0.891007 0.453989 0
    outer loop
      vertex -28.3703 -0.610105 0
      vertex -28.299 -0.749999 3
      vertex -28.299 -0.749999 0
    endloop
  endfacet
  facet normal 0.838668 0.544644 0
    outer loop
      vertex -28.2135 -0.881678 3
      vertex -28.299 -0.749999 0
      vertex -28.299 -0.749999 3
    endloop
  endfacet
  facet normal 0.838668 0.544644 0
    outer loop
      vertex -28.299 -0.749999 0
      vertex -28.2135 -0.881678 3
      vertex -28.2135 -0.881678 0
    endloop
  endfacet
  facet normal -0.965927 -0.258816 0
    outer loop
      vertex -25.5328 0.311867 0
      vertex -25.5734 0.463525 3
      vertex -25.5734 0.463525 0
    endloop
  endfacet
  facet normal -0.965927 -0.258816 0
    outer loop
      vertex -25.5734 0.463525 3
      vertex -25.5328 0.311867 0
      vertex -25.5328 0.311867 3
    endloop
  endfacet
  facet normal -0.987689 -0.156432 0
    outer loop
      vertex -25.5082 0.156793 0
      vertex -25.5328 0.311867 3
      vertex -25.5328 0.311867 0
    endloop
  endfacet
  facet normal -0.987689 -0.156432 0
    outer loop
      vertex -25.5328 0.311867 3
      vertex -25.5082 0.156793 0
      vertex -25.5082 0.156793 3
    endloop
  endfacet
  facet normal -0.93358 -0.358368 0
    outer loop
      vertex -25.5734 0.463525 0
      vertex -25.6297 0.610105 3
      vertex -25.6297 0.610105 0
    endloop
  endfacet
  facet normal -0.93358 -0.358368 0
    outer loop
      vertex -25.6297 0.610105 3
      vertex -25.5734 0.463525 0
      vertex -25.5734 0.463525 3
    endloop
  endfacet
  facet normal -0.156433 -0.987689 0
    outer loop
      vertex -26.8432 1.49178 0
      vertex -26.6881 1.46722 3
      vertex -26.8432 1.49178 3
    endloop
  endfacet
  facet normal -0.156433 -0.987689 -0
    outer loop
      vertex -26.6881 1.46722 3
      vertex -26.8432 1.49178 0
      vertex -26.6881 1.46722 0
    endloop
  endfacet
  facet normal -0.544636 -0.838672 0
    outer loop
      vertex -26.25 1.29904 0
      vertex -26.1183 1.21352 3
      vertex -26.25 1.29904 3
    endloop
  endfacet
  facet normal -0.544636 -0.838672 -0
    outer loop
      vertex -26.1183 1.21352 3
      vertex -26.25 1.29904 0
      vertex -26.1183 1.21352 0
    endloop
  endfacet
  facet normal -0.629324 -0.777143 0
    outer loop
      vertex -26.1183 1.21352 0
      vertex -25.9963 1.11472 3
      vertex -26.1183 1.21352 3
    endloop
  endfacet
  facet normal -0.629324 -0.777143 -0
    outer loop
      vertex -25.9963 1.11472 3
      vertex -26.1183 1.21352 0
      vertex -25.9963 1.11472 0
    endloop
  endfacet
  facet normal 0.965927 -0.258816 0
    outer loop
      vertex -28.4672 0.311867 3
      vertex -28.4266 0.463525 0
      vertex -28.4266 0.463525 3
    endloop
  endfacet
  facet normal 0.965927 -0.258816 0
    outer loop
      vertex -28.4266 0.463525 0
      vertex -28.4672 0.311867 3
      vertex -28.4672 0.311867 0
    endloop
  endfacet
  facet normal 0.707113 -0.707101 0
    outer loop
      vertex -28.1147 1.0037 3
      vertex -28.0037 1.11472 0
      vertex -28.0037 1.11472 3
    endloop
  endfacet
  facet normal 0.707113 -0.707101 0
    outer loop
      vertex -28.0037 1.11472 0
      vertex -28.1147 1.0037 3
      vertex -28.1147 1.0037 0
    endloop
  endfacet
  facet normal 0.891007 -0.453989 0
    outer loop
      vertex -28.3703 0.610105 3
      vertex -28.299 0.749999 0
      vertex -28.299 0.749999 3
    endloop
  endfacet
  facet normal 0.891007 -0.453989 0
    outer loop
      vertex -28.299 0.749999 0
      vertex -28.3703 0.610105 3
      vertex -28.3703 0.610105 0
    endloop
  endfacet
  facet normal 0.93358 -0.358368 0
    outer loop
      vertex -28.4266 0.463525 3
      vertex -28.3703 0.610105 0
      vertex -28.3703 0.610105 3
    endloop
  endfacet
  facet normal 0.93358 -0.358368 0
    outer loop
      vertex -28.3703 0.610105 0
      vertex -28.4266 0.463525 3
      vertex -28.4266 0.463525 0
    endloop
  endfacet
  facet normal 0.987687 -0.156444 0
    outer loop
      vertex -28.4918 0.156793 3
      vertex -28.4672 0.311867 0
      vertex -28.4672 0.311867 3
    endloop
  endfacet
  facet normal 0.987687 -0.156444 0
    outer loop
      vertex -28.4672 0.311867 0
      vertex -28.4918 0.156793 3
      vertex -28.4918 0.156793 0
    endloop
  endfacet
  facet normal 0.258823 -0.965925 0
    outer loop
      vertex -27.4635 1.42658 0
      vertex -27.3119 1.46722 3
      vertex -27.4635 1.42658 3
    endloop
  endfacet
  facet normal 0.258823 -0.965925 0
    outer loop
      vertex -27.3119 1.46722 3
      vertex -27.4635 1.42658 0
      vertex -27.3119 1.46722 0
    endloop
  endfacet
  facet normal 0.0523404 -0.998629 0
    outer loop
      vertex -27.1568 1.49178 0
      vertex -27 1.5 3
      vertex -27.1568 1.49178 3
    endloop
  endfacet
  facet normal 0.0523404 -0.998629 0
    outer loop
      vertex -27 1.5 3
      vertex -27.1568 1.49178 0
      vertex -27 1.5 0
    endloop
  endfacet
  facet normal -0.99863 0.0523341 0
    outer loop
      vertex -25.5082 -0.156793 0
      vertex -25.5 0 3
      vertex -25.5 0 0
    endloop
  endfacet
  facet normal -0.99863 0.0523341 0
    outer loop
      vertex -25.5 0 3
      vertex -25.5082 -0.156793 0
      vertex -25.5082 -0.156793 3
    endloop
  endfacet
  facet normal -0.0523398 0.998629 0
    outer loop
      vertex -26.8432 -1.49178 0
      vertex -27 -1.5 3
      vertex -26.8432 -1.49178 3
    endloop
  endfacet
  facet normal -0.0523398 0.998629 0
    outer loop
      vertex -27 -1.5 3
      vertex -26.8432 -1.49178 0
      vertex -27 -1.5 0
    endloop
  endfacet
  facet normal -0.453989 0.891007 0
    outer loop
      vertex -26.25 -1.29904 0
      vertex -26.3899 -1.37032 3
      vertex -26.25 -1.29904 3
    endloop
  endfacet
  facet normal -0.453989 0.891007 0
    outer loop
      vertex -26.3899 -1.37032 3
      vertex -26.25 -1.29904 0
      vertex -26.3899 -1.37032 0
    endloop
  endfacet
  facet normal -0.629324 0.777143 0
    outer loop
      vertex -25.9963 -1.11472 0
      vertex -26.1183 -1.21352 3
      vertex -25.9963 -1.11472 3
    endloop
  endfacet
  facet normal -0.629324 0.777143 0
    outer loop
      vertex -26.1183 -1.21352 3
      vertex -25.9963 -1.11472 0
      vertex -26.1183 -1.21352 0
    endloop
  endfacet
  facet normal -0.544636 0.838672 0
    outer loop
      vertex -26.1183 -1.21352 0
      vertex -26.25 -1.29904 3
      vertex -26.1183 -1.21352 3
    endloop
  endfacet
  facet normal -0.544636 0.838672 0
    outer loop
      vertex -26.25 -1.29904 3
      vertex -26.1183 -1.21352 0
      vertex -26.25 -1.29904 0
    endloop
  endfacet
  facet normal -0.777145 0.629321 0
    outer loop
      vertex -25.8853 -1.0037 0
      vertex -25.7865 -0.881678 3
      vertex -25.7865 -0.881678 0
    endloop
  endfacet
  facet normal -0.777145 0.629321 0
    outer loop
      vertex -25.7865 -0.881678 3
      vertex -25.8853 -1.0037 0
      vertex -25.8853 -1.0037 3
    endloop
  endfacet
  facet normal -0.838673 0.544635 0
    outer loop
      vertex -25.7865 -0.881678 0
      vertex -25.701 -0.749999 3
      vertex -25.701 -0.749999 0
    endloop
  endfacet
  facet normal -0.838673 0.544635 0
    outer loop
      vertex -25.701 -0.749999 3
      vertex -25.7865 -0.881678 0
      vertex -25.7865 -0.881678 3
    endloop
  endfacet
  facet normal 0.707113 0.707101 0
    outer loop
      vertex -28.0037 -1.11472 3
      vertex -28.1147 -1.0037 0
      vertex -28.1147 -1.0037 3
    endloop
  endfacet
  facet normal 0.707113 0.707101 0
    outer loop
      vertex -28.1147 -1.0037 0
      vertex -28.0037 -1.11472 3
      vertex -28.0037 -1.11472 0
    endloop
  endfacet
  facet normal 0.629318 0.777148 -0
    outer loop
      vertex -27.8817 -1.21352 0
      vertex -28.0037 -1.11472 3
      vertex -27.8817 -1.21352 3
    endloop
  endfacet
  facet normal 0.629318 0.777148 0
    outer loop
      vertex -28.0037 -1.11472 3
      vertex -27.8817 -1.21352 0
      vertex -28.0037 -1.11472 0
    endloop
  endfacet
  facet normal 0.544642 0.838669 -0
    outer loop
      vertex -27.75 -1.29904 0
      vertex -27.8817 -1.21352 3
      vertex -27.75 -1.29904 3
    endloop
  endfacet
  facet normal 0.544642 0.838669 0
    outer loop
      vertex -27.8817 -1.21352 3
      vertex -27.75 -1.29904 0
      vertex -27.8817 -1.21352 0
    endloop
  endfacet
  facet normal 0.156431 0.987689 -0
    outer loop
      vertex -27.1568 -1.49178 0
      vertex -27.3119 -1.46722 3
      vertex -27.1568 -1.49178 3
    endloop
  endfacet
  facet normal 0.156431 0.987689 0
    outer loop
      vertex -27.3119 -1.46722 3
      vertex -27.1568 -1.49178 0
      vertex -27.3119 -1.46722 0
    endloop
  endfacet
  facet normal 0.777145 0.629321 0
    outer loop
      vertex -28.1147 -1.0037 3
      vertex -28.2135 -0.881678 0
      vertex -28.2135 -0.881678 3
    endloop
  endfacet
  facet normal 0.777145 0.629321 0
    outer loop
      vertex -28.2135 -0.881678 0
      vertex -28.1147 -1.0037 3
      vertex -28.1147 -1.0037 0
    endloop
  endfacet
  facet normal 0.99863 0.0523341 0
    outer loop
      vertex -28.4918 -0.156793 3
      vertex -28.5 0 0
      vertex -28.5 0 3
    endloop
  endfacet
  facet normal 0.99863 0.0523341 0
    outer loop
      vertex -28.5 0 0
      vertex -28.4918 -0.156793 3
      vertex -28.4918 -0.156793 0
    endloop
  endfacet
  facet normal -0.777145 -0.629321 0
    outer loop
      vertex -25.7865 0.881678 0
      vertex -25.8853 1.0037 3
      vertex -25.8853 1.0037 0
    endloop
  endfacet
  facet normal -0.777145 -0.629321 0
    outer loop
      vertex -25.8853 1.0037 3
      vertex -25.7865 0.881678 0
      vertex -25.7865 0.881678 3
    endloop
  endfacet
  facet normal -0.453989 -0.891007 0
    outer loop
      vertex -26.3899 1.37032 0
      vertex -26.25 1.29904 3
      vertex -26.3899 1.37032 3
    endloop
  endfacet
  facet normal -0.453989 -0.891007 -0
    outer loop
      vertex -26.25 1.29904 3
      vertex -26.3899 1.37032 0
      vertex -26.25 1.29904 0
    endloop
  endfacet
  facet normal 0.544642 -0.838669 0
    outer loop
      vertex -27.8817 1.21352 0
      vertex -27.75 1.29904 3
      vertex -27.8817 1.21352 3
    endloop
  endfacet
  facet normal 0.544642 -0.838669 0
    outer loop
      vertex -27.75 1.29904 3
      vertex -27.8817 1.21352 0
      vertex -27.75 1.29904 0
    endloop
  endfacet
  facet normal -0.156433 0.987689 0
    outer loop
      vertex -26.6881 -1.46722 0
      vertex -26.8432 -1.49178 3
      vertex -26.6881 -1.46722 3
    endloop
  endfacet
  facet normal -0.156433 0.987689 0
    outer loop
      vertex -26.8432 -1.49178 3
      vertex -26.6881 -1.46722 0
      vertex -26.8432 -1.49178 0
    endloop
  endfacet
  facet normal -0.358368 0.93358 0
    outer loop
      vertex -26.3899 -1.37032 0
      vertex -26.5365 -1.42658 3
      vertex -26.3899 -1.37032 3
    endloop
  endfacet
  facet normal -0.358368 0.93358 0
    outer loop
      vertex -26.5365 -1.42658 3
      vertex -26.3899 -1.37032 0
      vertex -26.5365 -1.42658 0
    endloop
  endfacet
  facet normal -0.93358 0.358368 0
    outer loop
      vertex -25.6297 -0.610105 0
      vertex -25.5734 -0.463525 3
      vertex -25.5734 -0.463525 0
    endloop
  endfacet
  facet normal -0.93358 0.358368 0
    outer loop
      vertex -25.5734 -0.463525 3
      vertex -25.6297 -0.610105 0
      vertex -25.6297 -0.610105 3
    endloop
  endfacet
  facet normal -0.987689 0.156432 0
    outer loop
      vertex -25.5328 -0.311867 0
      vertex -25.5082 -0.156793 3
      vertex -25.5082 -0.156793 0
    endloop
  endfacet
  facet normal -0.987689 0.156432 0
    outer loop
      vertex -25.5082 -0.156793 3
      vertex -25.5328 -0.311867 0
      vertex -25.5328 -0.311867 3
    endloop
  endfacet
  facet normal 0.453984 0.89101 -0
    outer loop
      vertex -27.6101 -1.37032 0
      vertex -27.75 -1.29904 3
      vertex -27.6101 -1.37032 3
    endloop
  endfacet
  facet normal 0.453984 0.89101 0
    outer loop
      vertex -27.75 -1.29904 3
      vertex -27.6101 -1.37032 0
      vertex -27.75 -1.29904 0
    endloop
  endfacet
  facet normal 0.258823 0.965925 -0
    outer loop
      vertex -27.3119 -1.46722 0
      vertex -27.4635 -1.42658 3
      vertex -27.3119 -1.46722 3
    endloop
  endfacet
  facet normal 0.258823 0.965925 0
    outer loop
      vertex -27.4635 -1.42658 3
      vertex -27.3119 -1.46722 0
      vertex -27.4635 -1.42658 0
    endloop
  endfacet
  facet normal 0.93358 0.358368 0
    outer loop
      vertex -28.3703 -0.610105 3
      vertex -28.4266 -0.463525 0
      vertex -28.4266 -0.463525 3
    endloop
  endfacet
  facet normal 0.93358 0.358368 0
    outer loop
      vertex -28.4266 -0.463525 0
      vertex -28.3703 -0.610105 3
      vertex -28.3703 -0.610105 0
    endloop
  endfacet
  facet normal 0.987687 0.156444 0
    outer loop
      vertex -28.4672 -0.311867 3
      vertex -28.4918 -0.156793 0
      vertex -28.4918 -0.156793 3
    endloop
  endfacet
  facet normal 0.987687 0.156444 0
    outer loop
      vertex -28.4918 -0.156793 0
      vertex -28.4672 -0.311867 3
      vertex -28.4672 -0.311867 0
    endloop
  endfacet
  facet normal 1 -0 0
    outer loop
      vertex -8.5 -14 3
      vertex -8.5 -9 0
      vertex -8.5 -9 3
    endloop
  endfacet
  facet normal 1 0 0
    outer loop
      vertex -8.5 -9 0
      vertex -8.5 -14 3
      vertex -8.5 -14 0
    endloop
  endfacet
  facet normal -1 0 0
    outer loop
      vertex 8.5 -14 0
      vertex 8.5 -9 3
      vertex 8.5 -9 0
    endloop
  endfacet
  facet normal -1 -0 0
    outer loop
      vertex 8.5 -9 3
      vertex 8.5 -14 0
      vertex 8.5 -14 3
    endloop
  endfacet
  facet normal 0 -1 0
    outer loop
      vertex -8.5 -9 0
      vertex 8.5 -9 3
      vertex -8.5 -9 3
    endloop
  endfacet
  facet normal 0 -1 -0
    outer loop
      vertex 8.5 -9 3
      vertex -8.5 -9 0
      vertex 8.5 -9 0
    endloop
  endfacet
  facet normal 0 1 -0
    outer loop
      vertex 8.5 -14 0
      vertex -8.5 -14 3
      vertex 8.5 -14 3
    endloop
  endfacet
  facet normal 0 1 0
    outer loop
      vertex -8.5 -14 3
      vertex 8.5 -14 0
      vertex -8.5 -14 0
    endloop
  endfacet
endsolid OpenSCAD_Model
